[[0, 0, 0], {"activation": "relu", "batch_norm_1": "False", "batch_size": "256", "dropout_1": "True", "dropout_rate": "0.3", "kernel_size_1": "5", "learning_rate": 0.0006720250461872905, "maxpool_1": "False", "model_optimizer": "sgd", "n_conv_layers": 2, "n_layers": 1, "n_out_1": "512", "out_channels_1": "16", "stride_1": 1, "weight_decay": "0.1", "batch_norm_2": "False", "dropout_2": "False", "kernel_size_2": "5", "maxpool_2": "False", "momentum": 0.1991309894641544, "out_channels_2": "8", "stride_2": 2}, {}]
[[0, 0, 1], {"activation": "tanh", "batch_norm_1": "True", "batch_size": "32", "dropout_1": "False", "dropout_rate": "0.2", "kernel_size_1": "3", "learning_rate": 0.0007083354074267574, "maxpool_1": "False", "model_optimizer": "sgd", "n_conv_layers": 1, "n_layers": 3, "n_out_1": "512", "out_channels_1": "16", "stride_1": 3, "weight_decay": "0.01", "momentum": 0.5813761080314465, "n_out_2": "128", "n_out_3": "64"}, {}]
[[1, 0, 0], {"activation": "sigmoid", "batch_norm_1": "True", "batch_size": "64", "dropout_1": "False", "dropout_rate": "0.2", "kernel_size_1": "3", "learning_rate": 0.0033624209655082494, "maxpool_1": "False", "model_optimizer": "sgd", "n_conv_layers": 1, "n_layers": 1, "n_out_1": "256", "out_channels_1": "16", "stride_1": 3, "weight_decay": "0.01", "momentum": 0.8601534633813371}, {}]
[[1, 0, 1], {"activation": "tanh", "batch_norm_1": "True", "batch_size": "32", "dropout_1": "False", "dropout_rate": "0.2", "kernel_size_1": "5", "learning_rate": 0.09821697717371654, "maxpool_1": "False", "model_optimizer": "adad", "n_conv_layers": 1, "n_layers": 1, "n_out_1": "512", "out_channels_1": "16", "stride_1": 1, "weight_decay": "0.1"}, {}]
[[2, 0, 0], {"activation": "relu", "batch_norm_1": "True", "batch_size": "256", "dropout_1": "True", "dropout_rate": "0.3", "kernel_size_1": "7", "learning_rate": 0.00010731985742184783, "maxpool_1": "True", "model_optimizer": "sgd", "n_conv_layers": 1, "n_layers": 1, "n_out_1": "128", "out_channels_1": "16", "stride_1": 1, "weight_decay": "0.1", "maxpool_kernel_size_1": "2", "maxpool_stride_1": 3, "momentum": 0.33244970846812555}, {}]
[[2, 0, 1], {"activation": "sigmoid", "batch_norm_1": "True", "batch_size": "256", "dropout_1": "False", "dropout_rate": "0.3", "kernel_size_1": "5", "learning_rate": 0.001409010400365372, "maxpool_1": "True", "model_optimizer": "sgd", "n_conv_layers": 2, "n_layers": 1, "n_out_1": "64", "out_channels_1": "16", "stride_1": 1, "weight_decay": "0.1", "batch_norm_2": "True", "dropout_2": "False", "kernel_size_2": "2", "maxpool_2": "False", "maxpool_kernel_size_1": "2", "maxpool_stride_1": 3, "momentum": 0.8354183341257359, "out_channels_2": "32", "stride_2": 2}, {}]
[[3, 0, 0], {"activation": "sigmoid", "batch_norm_1": "False", "batch_size": "256", "dropout_1": "False", "dropout_rate": "0.2", "kernel_size_1": "3", "learning_rate": 0.01991808784469862, "maxpool_1": "False", "model_optimizer": "adad", "n_conv_layers": 1, "n_layers": 1, "n_out_1": "512", "out_channels_1": "4", "stride_1": 3, "weight_decay": "0.01"}, {}]
[[3, 0, 1], {"activation": "sigmoid", "batch_norm_1": "True", "batch_size": "128", "dropout_1": "True", "dropout_rate": "0.3", "kernel_size_1": "5", "learning_rate": 0.09245152396939463, "maxpool_1": "False", "model_optimizer": "adad", "n_conv_layers": 3, "n_layers": 1, "n_out_1": "512", "out_channels_1": "16", "stride_1": 1, "weight_decay": "0.1", "batch_norm_2": "True", "batch_norm_3": "True", "dropout_2": "False", "dropout_3": "True", "kernel_size_2": "5", "kernel_size_3": "5", "maxpool_2": "False", "maxpool_3": "True", "out_channels_2": "32", "out_channels_3": "16", "stride_2": 2, "stride_3": 2, "maxpool_kernel_size_3": "2", "maxpool_stride_3": 1}, {}]
[[4, 0, 0], {"activation": "tanh", "batch_norm_1": "False", "batch_size": "128", "dropout_1": "True", "dropout_rate": "0.2", "kernel_size_1": "5", "learning_rate": 0.011308306487016851, "maxpool_1": "False", "model_optimizer": "adad", "n_conv_layers": 2, "n_layers": 2, "n_out_1": "64", "out_channels_1": "8", "stride_1": 2, "weight_decay": "0.0", "batch_norm_2": "True", "dropout_2": "True", "kernel_size_2": "5", "maxpool_2": "False", "n_out_2": "256", "out_channels_2": "32", "stride_2": 1}, {}]
[[4, 0, 1], {"activation": "sigmoid", "batch_norm_1": "False", "batch_size": "256", "dropout_1": "False", "dropout_rate": "0.3", "kernel_size_1": "3", "learning_rate": 0.0020056426127457476, "maxpool_1": "False", "model_optimizer": "adad", "n_conv_layers": 3, "n_layers": 1, "n_out_1": "64", "out_channels_1": "8", "stride_1": 2, "weight_decay": "0.1", "batch_norm_2": "False", "batch_norm_3": "False", "dropout_2": "True", "dropout_3": "False", "kernel_size_2": "2", "kernel_size_3": "1", "maxpool_2": "True", "maxpool_3": "True", "out_channels_2": "8", "out_channels_3": "16", "stride_2": 1, "stride_3": 3, "maxpool_kernel_size_2": "5", "maxpool_kernel_size_3": "3", "maxpool_stride_2": 3, "maxpool_stride_3": 2}, {}]
[[5, 0, 0], {"activation": "relu", "batch_norm_1": "True", "batch_size": "256", "dropout_1": "True", "dropout_rate": "0.3", "kernel_size_1": "3", "learning_rate": 0.0027570123394933285, "maxpool_1": "True", "model_optimizer": "adam", "n_conv_layers": 1, "n_layers": 2, "n_out_1": "256", "out_channels_1": "8", "stride_1": 1, "weight_decay": "0.0", "amsgrad": "False", "maxpool_kernel_size_1": "5", "maxpool_stride_1": 2, "n_out_2": "64"}, {}]
[[5, 0, 1], {"activation": "relu", "batch_norm_1": "True", "batch_size": "512", "dropout_1": "True", "dropout_rate": "0.3", "kernel_size_1": "5", "learning_rate": 0.0027019754285502124, "maxpool_1": "False", "model_optimizer": "adam", "n_conv_layers": 2, "n_layers": 1, "n_out_1": "64", "out_channels_1": "16", "stride_1": 3, "weight_decay": "0.01", "amsgrad": "True", "batch_norm_2": "False", "dropout_2": "False", "kernel_size_2": "5", "maxpool_2": "False", "out_channels_2": "8", "stride_2": 3}, {}]
[[6, 0, 0], {"activation": "relu", "batch_norm_1": "False", "batch_size": "128", "dropout_1": "True", "dropout_rate": "0.3", "kernel_size_1": "3", "learning_rate": 0.003555962081861782, "maxpool_1": "True", "model_optimizer": "adad", "n_conv_layers": 3, "n_layers": 1, "n_out_1": "128", "out_channels_1": "16", "stride_1": 2, "weight_decay": "0.01", "batch_norm_2": "False", "batch_norm_3": "True", "dropout_2": "True", "dropout_3": "False", "kernel_size_2": "2", "kernel_size_3": "5", "maxpool_2": "False", "maxpool_3": "False", "maxpool_kernel_size_1": "3", "maxpool_stride_1": 1, "out_channels_2": "32", "out_channels_3": "8", "stride_2": 3, "stride_3": 1}, {}]
[[6, 0, 1], {"activation": "sigmoid", "batch_norm_1": "True", "batch_size": "64", "dropout_1": "False", "dropout_rate": "0.2", "kernel_size_1": "5", "learning_rate": 0.0010830784621953797, "maxpool_1": "True", "model_optimizer": "adad", "n_conv_layers": 1, "n_layers": 1, "n_out_1": "256", "out_channels_1": "8", "stride_1": 3, "weight_decay": "0.0", "maxpool_kernel_size_1": "2", "maxpool_stride_1": 2}, {}]
[[7, 0, 0], {"activation": "sigmoid", "batch_norm_1": "True", "batch_size": "256", "dropout_1": "False", "dropout_rate": "0.2", "kernel_size_1": "7", "learning_rate": 0.00021196843356294763, "maxpool_1": "True", "model_optimizer": "adad", "n_conv_layers": 2, "n_layers": 1, "n_out_1": "512", "out_channels_1": "4", "stride_1": 1, "weight_decay": "0.0", "batch_norm_2": "False", "dropout_2": "False", "kernel_size_2": "5", "maxpool_2": "True", "maxpool_kernel_size_1": "2", "maxpool_stride_1": 3, "out_channels_2": "32", "stride_2": 1, "maxpool_kernel_size_2": "5", "maxpool_stride_2": 3}, {}]
[[7, 0, 1], {"activation": "relu", "batch_norm_1": "False", "batch_size": "32", "dropout_1": "False", "dropout_rate": "0.3", "kernel_size_1": "5", "learning_rate": 0.03500402419348517, "maxpool_1": "False", "model_optimizer": "adam", "n_conv_layers": 2, "n_layers": 1, "n_out_1": "64", "out_channels_1": "8", "stride_1": 2, "weight_decay": "0.01", "amsgrad": "True", "batch_norm_2": "False", "dropout_2": "True", "kernel_size_2": "5", "maxpool_2": "True", "out_channels_2": "8", "stride_2": 3, "maxpool_kernel_size_2": "3", "maxpool_stride_2": 1}, {}]
[[8, 0, 0], {"activation": "sigmoid", "batch_norm_1": "True", "batch_size": "256", "dropout_1": "False", "dropout_rate": "0.3", "kernel_size_1": "5", "learning_rate": 0.0011626382893695256, "maxpool_1": "False", "model_optimizer": "adad", "n_conv_layers": 2, "n_layers": 1, "n_out_1": "128", "out_channels_1": "16", "stride_1": 2, "weight_decay": "0.01", "batch_norm_2": "False", "dropout_2": "True", "kernel_size_2": "2", "maxpool_2": "False", "out_channels_2": "32", "stride_2": 2}, {}]
[[8, 0, 1], {"activation": "sigmoid", "batch_norm_1": "True", "batch_size": "128", "dropout_1": "True", "dropout_rate": "0.3", "kernel_size_1": "7", "learning_rate": 0.07226723662155529, "maxpool_1": "False", "model_optimizer": "adad", "n_conv_layers": 1, "n_layers": 2, "n_out_1": "512", "out_channels_1": "4", "stride_1": 1, "weight_decay": "0.0", "n_out_2": "128"}, {}]
[[9, 0, 0], {"activation": "relu", "batch_norm_1": "False", "batch_size": "512", "dropout_1": "True", "dropout_rate": "0.2", "kernel_size_1": "7", "learning_rate": 0.0008183804247138394, "maxpool_1": "True", "model_optimizer": "sgd", "n_conv_layers": 3, "n_layers": 1, "n_out_1": "64", "out_channels_1": "4", "stride_1": 2, "weight_decay": "0.1", "batch_norm_2": "True", "batch_norm_3": "True", "dropout_2": "False", "dropout_3": "True", "kernel_size_2": "5", "kernel_size_3": "3", "maxpool_2": "False", "maxpool_3": "False", "maxpool_kernel_size_1": "2", "maxpool_stride_1": 2, "momentum": 0.20319197317549395, "out_channels_2": "32", "out_channels_3": "32", "stride_2": 3, "stride_3": 1}, {}]
[[9, 0, 1], {"activation": "relu", "batch_norm_1": "False", "batch_size": "512", "dropout_1": "True", "dropout_rate": "0.2", "kernel_size_1": "7", "learning_rate": 0.003480896506569939, "maxpool_1": "False", "model_optimizer": "adam", "n_conv_layers": 1, "n_layers": 1, "n_out_1": "128", "out_channels_1": "8", "stride_1": 3, "weight_decay": "0.1", "amsgrad": "True"}, {}]
[[10, 0, 0], {"activation": "sigmoid", "batch_norm_1": "True", "batch_size": "64", "dropout_1": "True", "dropout_rate": "0.3", "kernel_size_1": "5", "learning_rate": 0.026934084703858868, "maxpool_1": "True", "model_optimizer": "sgd", "n_conv_layers": 1, "n_layers": 1, "n_out_1": "128", "out_channels_1": "16", "stride_1": 3, "weight_decay": "0.01", "maxpool_kernel_size_1": "3", "maxpool_stride_1": 3, "momentum": 0.3429732009462611}, {}]
[[10, 0, 1], {"activation": "relu", "batch_norm_1": "True", "batch_size": "256", "dropout_1": "False", "dropout_rate": "0.3", "kernel_size_1": "7", "learning_rate": 0.0007944642523025326, "maxpool_1": "False", "model_optimizer": "adam", "n_conv_layers": 3, "n_layers": 2, "n_out_1": "256", "out_channels_1": "4", "stride_1": 3, "weight_decay": "0.01", "amsgrad": "True", "batch_norm_2": "True", "batch_norm_3": "True", "dropout_2": "True", "dropout_3": "True", "kernel_size_2": "2", "kernel_size_3": "5", "maxpool_2": "True", "maxpool_3": "False", "n_out_2": "64", "out_channels_2": "8", "out_channels_3": "32", "stride_2": 2, "stride_3": 1, "maxpool_kernel_size_2": "4", "maxpool_stride_2": 3}, {}]
[[11, 0, 0], {"activation": "relu", "batch_norm_1": "True", "batch_size": "512", "dropout_1": "True", "dropout_rate": "0.2", "kernel_size_1": "5", "learning_rate": 0.0010025416962632702, "maxpool_1": "False", "model_optimizer": "adad", "n_conv_layers": 1, "n_layers": 1, "n_out_1": "256", "out_channels_1": "8", "stride_1": 2, "weight_decay": "0.01"}, {}]
[[11, 0, 1], {"activation": "tanh", "batch_norm_1": "False", "batch_size": "256", "dropout_1": "True", "dropout_rate": "0.2", "kernel_size_1": "3", "learning_rate": 0.0380630533367051, "maxpool_1": "True", "model_optimizer": "adad", "n_conv_layers": 3, "n_layers": 1, "n_out_1": "256", "out_channels_1": "4", "stride_1": 3, "weight_decay": "0.01", "batch_norm_2": "True", "batch_norm_3": "False", "dropout_2": "False", "dropout_3": "True", "kernel_size_2": "2", "kernel_size_3": "3", "maxpool_2": "False", "maxpool_3": "True", "maxpool_kernel_size_1": "4", "maxpool_stride_1": 3, "out_channels_2": "32", "out_channels_3": "64", "stride_2": 3, "stride_3": 2, "maxpool_kernel_size_3": "2", "maxpool_stride_3": 1}, {}]
[[12, 0, 0], {"activation": "tanh", "batch_norm_1": "True", "batch_size": "32", "dropout_1": "False", "dropout_rate": "0.1", "kernel_size_1": "3", "learning_rate": 0.045921859501635014, "maxpool_1": "False", "model_optimizer": "sgd", "n_conv_layers": 1, "n_layers": 1, "n_out_1": "128", "out_channels_1": "8", "stride_1": 1, "weight_decay": "0.1", "momentum": 0.6128803391282769}, {}]
[[12, 0, 1], {"activation": "sigmoid", "batch_norm_1": "False", "batch_size": "256", "dropout_1": "False", "dropout_rate": "0.1", "kernel_size_1": "3", "learning_rate": 0.0051456984851549325, "maxpool_1": "True", "model_optimizer": "sgd", "n_conv_layers": 1, "n_layers": 3, "n_out_1": "512", "out_channels_1": "16", "stride_1": 2, "weight_decay": "0.0", "maxpool_kernel_size_1": "4", "maxpool_stride_1": 1, "momentum": 0.315201580210859, "n_out_2": "128", "n_out_3": "32"}, {}]
[[13, 0, 0], {"activation": "tanh", "batch_norm_1": "True", "batch_size": "256", "dropout_1": "True", "dropout_rate": "0.3", "kernel_size_1": "5", "learning_rate": 0.00013467202109525956, "maxpool_1": "True", "model_optimizer": "adam", "n_conv_layers": 1, "n_layers": 1, "n_out_1": "128", "out_channels_1": "16", "stride_1": 1, "weight_decay": "0.01", "amsgrad": "False", "maxpool_kernel_size_1": "6", "maxpool_stride_1": 2}, {}]
[[13, 0, 1], {"activation": "relu", "batch_norm_1": "False", "batch_size": "512", "dropout_1": "True", "dropout_rate": "0.2", "kernel_size_1": "7", "learning_rate": 0.026487692992690468, "maxpool_1": "False", "model_optimizer": "adad", "n_conv_layers": 1, "n_layers": 3, "n_out_1": "512", "out_channels_1": "16", "stride_1": 3, "weight_decay": "0.01", "n_out_2": "128", "n_out_3": "64"}, {}]
[[14, 0, 0], {"activation": "tanh", "batch_norm_1": "False", "batch_size": "32", "dropout_1": "True", "dropout_rate": "0.3", "kernel_size_1": "3", "learning_rate": 0.0011377690676008087, "maxpool_1": "True", "model_optimizer": "adam", "n_conv_layers": 2, "n_layers": 2, "n_out_1": "512", "out_channels_1": "4", "stride_1": 1, "weight_decay": "0.01", "amsgrad": "False", "batch_norm_2": "True", "dropout_2": "True", "kernel_size_2": "2", "maxpool_2": "True", "maxpool_kernel_size_1": "3", "maxpool_stride_1": 2, "n_out_2": "32", "out_channels_2": "32", "stride_2": 1, "maxpool_kernel_size_2": "3", "maxpool_stride_2": 1}, {}]
[[14, 0, 1], {"activation": "sigmoid", "batch_norm_1": "False", "batch_size": "128", "dropout_1": "True", "dropout_rate": "0.1", "kernel_size_1": "5", "learning_rate": 0.0027717355135688016, "maxpool_1": "True", "model_optimizer": "sgd", "n_conv_layers": 1, "n_layers": 2, "n_out_1": "128", "out_channels_1": "4", "stride_1": 3, "weight_decay": "0.1", "maxpool_kernel_size_1": "4", "maxpool_stride_1": 3, "momentum": 0.5630510405501504, "n_out_2": "32"}, {}]
[[15, 0, 0], {"activation": "tanh", "batch_norm_1": "True", "batch_size": "256", "dropout_1": "False", "dropout_rate": "0.2", "kernel_size_1": "7", "learning_rate": 0.00031762527951990986, "maxpool_1": "True", "model_optimizer": "sgd", "n_conv_layers": 3, "n_layers": 1, "n_out_1": "512", "out_channels_1": "16", "stride_1": 2, "weight_decay": "0.1", "batch_norm_2": "False", "batch_norm_3": "True", "dropout_2": "False", "dropout_3": "False", "kernel_size_2": "2", "kernel_size_3": "3", "maxpool_2": "False", "maxpool_3": "False", "maxpool_kernel_size_1": "6", "maxpool_stride_1": 1, "momentum": 0.7089917735094482, "out_channels_2": "32", "out_channels_3": "64", "stride_2": 2, "stride_3": 2}, {}]
[[15, 0, 1], {"activation": "sigmoid", "batch_norm_1": "True", "batch_size": "32", "dropout_1": "True", "dropout_rate": "0.2", "kernel_size_1": "7", "learning_rate": 0.00017783391104402344, "maxpool_1": "True", "model_optimizer": "adad", "n_conv_layers": 2, "n_layers": 1, "n_out_1": "512", "out_channels_1": "4", "stride_1": 3, "weight_decay": "0.1", "batch_norm_2": "False", "dropout_2": "False", "kernel_size_2": "3", "maxpool_2": "True", "maxpool_kernel_size_1": "2", "maxpool_stride_1": 1, "out_channels_2": "8", "stride_2": 2, "maxpool_kernel_size_2": "2", "maxpool_stride_2": 2}, {}]
[[16, 0, 0], {"activation": "tanh", "batch_norm_1": "False", "batch_size": "256", "dropout_1": "False", "dropout_rate": "0.1", "kernel_size_1": "7", "learning_rate": 0.0001568814889973884, "maxpool_1": "False", "model_optimizer": "adam", "n_conv_layers": 1, "n_layers": 2, "n_out_1": "64", "out_channels_1": "16", "stride_1": 3, "weight_decay": "0.1", "amsgrad": "False", "n_out_2": "64"}, {}]
[[16, 0, 1], {"activation": "relu", "batch_norm_1": "False", "batch_size": "64", "dropout_1": "True", "dropout_rate": "0.3", "kernel_size_1": "7", "learning_rate": 0.06276963189124263, "maxpool_1": "False", "model_optimizer": "sgd", "n_conv_layers": 2, "n_layers": 2, "n_out_1": "256", "out_channels_1": "16", "stride_1": 2, "weight_decay": "0.1", "batch_norm_2": "False", "dropout_2": "True", "kernel_size_2": "3", "maxpool_2": "True", "momentum": 0.3532019379461858, "n_out_2": "64", "out_channels_2": "32", "stride_2": 3, "maxpool_kernel_size_2": "3", "maxpool_stride_2": 1}, {}]
[[17, 0, 0], {"activation": "tanh", "batch_norm_1": "True", "batch_size": "512", "dropout_1": "False", "dropout_rate": "0.3", "kernel_size_1": "3", "learning_rate": 0.009106446195378603, "maxpool_1": "False", "model_optimizer": "sgd", "n_conv_layers": 1, "n_layers": 1, "n_out_1": "256", "out_channels_1": "16", "stride_1": 2, "weight_decay": "0.01", "momentum": 0.49791423956457387}, {}]
[[17, 0, 1], {"activation": "sigmoid", "batch_norm_1": "True", "batch_size": "512", "dropout_1": "True", "dropout_rate": "0.2", "kernel_size_1": "7", "learning_rate": 0.0014082398116238035, "maxpool_1": "False", "model_optimizer": "adam", "n_conv_layers": 1, "n_layers": 1, "n_out_1": "512", "out_channels_1": "16", "stride_1": 1, "weight_decay": "0.01", "amsgrad": "True"}, {}]
[[18, 0, 0], {"activation": "sigmoid", "batch_norm_1": "False", "batch_size": "256", "dropout_1": "False", "dropout_rate": "0.3", "kernel_size_1": "5", "learning_rate": 0.054605610695350255, "maxpool_1": "False", "model_optimizer": "adam", "n_conv_layers": 3, "n_layers": 3, "n_out_1": "512", "out_channels_1": "4", "stride_1": 1, "weight_decay": "0.01", "amsgrad": "True", "batch_norm_2": "True", "batch_norm_3": "True", "dropout_2": "False", "dropout_3": "False", "kernel_size_2": "2", "kernel_size_3": "1", "maxpool_2": "False", "maxpool_3": "False", "n_out_2": "256", "n_out_3": "64", "out_channels_2": "16", "out_channels_3": "8", "stride_2": 3, "stride_3": 1}, {}]
[[18, 0, 1], {"activation": "sigmoid", "batch_norm_1": "False", "batch_size": "64", "dropout_1": "False", "dropout_rate": "0.1", "kernel_size_1": "3", "learning_rate": 0.005312205805336153, "maxpool_1": "True", "model_optimizer": "adam", "n_conv_layers": 1, "n_layers": 1, "n_out_1": "512", "out_channels_1": "8", "stride_1": 1, "weight_decay": "0.1", "amsgrad": "True", "maxpool_kernel_size_1": "2", "maxpool_stride_1": 3}, {}]
[[19, 0, 0], {"activation": "relu", "batch_norm_1": "False", "batch_size": "128", "dropout_1": "True", "dropout_rate": "0.3", "kernel_size_1": "7", "learning_rate": 0.06567121578184314, "maxpool_1": "True", "model_optimizer": "adam", "n_conv_layers": 1, "n_layers": 1, "n_out_1": "128", "out_channels_1": "8", "stride_1": 3, "weight_decay": "0.0", "amsgrad": "False", "maxpool_kernel_size_1": "2", "maxpool_stride_1": 1}, {}]
[[19, 0, 1], {"activation": "sigmoid", "batch_norm_1": "False", "batch_size": "256", "dropout_1": "False", "dropout_rate": "0.2", "kernel_size_1": "5", "learning_rate": 0.0825063494300361, "maxpool_1": "True", "model_optimizer": "adam", "n_conv_layers": 1, "n_layers": 1, "n_out_1": "256", "out_channels_1": "16", "stride_1": 2, "weight_decay": "0.01", "amsgrad": "True", "maxpool_kernel_size_1": "5", "maxpool_stride_1": 1}, {}]
[[20, 0, 0], {"activation": "relu", "batch_norm_1": "False", "batch_size": "32", "dropout_1": "False", "dropout_rate": "0.2", "kernel_size_1": "3", "learning_rate": 0.046198894184948595, "maxpool_1": "True", "model_optimizer": "sgd", "n_conv_layers": 1, "n_layers": 2, "n_out_1": "128", "out_channels_1": "4", "stride_1": 1, "weight_decay": "0.0", "maxpool_kernel_size_1": "6", "maxpool_stride_1": 2, "momentum": 0.8204702850841735, "n_out_2": "32"}, {}]
[[20, 0, 1], {"activation": "sigmoid", "batch_norm_1": "False", "batch_size": "128", "dropout_1": "True", "dropout_rate": "0.2", "kernel_size_1": "3", "learning_rate": 0.002132726302785131, "maxpool_1": "True", "model_optimizer": "adad", "n_conv_layers": 1, "n_layers": 1, "n_out_1": "256", "out_channels_1": "16", "stride_1": 1, "weight_decay": "0.1", "maxpool_kernel_size_1": "4", "maxpool_stride_1": 1}, {}]
[[21, 0, 0], {"activation": "sigmoid", "batch_norm_1": "True", "batch_size": "256", "dropout_1": "False", "dropout_rate": "0.2", "kernel_size_1": "7", "learning_rate": 0.0031041665303005606, "maxpool_1": "False", "model_optimizer": "adad", "n_conv_layers": 2, "n_layers": 2, "n_out_1": "256", "out_channels_1": "16", "stride_1": 3, "weight_decay": "0.1", "batch_norm_2": "True", "dropout_2": "False", "kernel_size_2": "2", "maxpool_2": "True", "n_out_2": "32", "out_channels_2": "16", "stride_2": 3, "maxpool_kernel_size_2": "3", "maxpool_stride_2": 2}, {}]
[[21, 0, 1], {"activation": "tanh", "batch_norm_1": "False", "batch_size": "128", "dropout_1": "True", "dropout_rate": "0.1", "kernel_size_1": "3", "learning_rate": 0.04303911479149056, "maxpool_1": "True", "model_optimizer": "adad", "n_conv_layers": 1, "n_layers": 1, "n_out_1": "512", "out_channels_1": "8", "stride_1": 3, "weight_decay": "0.1", "maxpool_kernel_size_1": "5", "maxpool_stride_1": 2}, {}]
[[22, 0, 0], {"activation": "sigmoid", "batch_norm_1": "True", "batch_size": "32", "dropout_1": "True", "dropout_rate": "0.1", "kernel_size_1": "5", "learning_rate": 0.004892566802111437, "maxpool_1": "True", "model_optimizer": "adam", "n_conv_layers": 1, "n_layers": 2, "n_out_1": "256", "out_channels_1": "4", "stride_1": 2, "weight_decay": "0.01", "amsgrad": "True", "maxpool_kernel_size_1": "5", "maxpool_stride_1": 1, "n_out_2": "128"}, {}]
[[22, 0, 1], {"activation": "sigmoid", "batch_norm_1": "False", "batch_size": "256", "dropout_1": "False", "dropout_rate": "0.1", "kernel_size_1": "3", "learning_rate": 0.0028077901731463047, "maxpool_1": "True", "model_optimizer": "adad", "n_conv_layers": 1, "n_layers": 2, "n_out_1": "512", "out_channels_1": "16", "stride_1": 3, "weight_decay": "0.1", "maxpool_kernel_size_1": "3", "maxpool_stride_1": 2, "n_out_2": "128"}, {}]
[[23, 0, 0], {"activation": "sigmoid", "batch_norm_1": "False", "batch_size": "512", "dropout_1": "True", "dropout_rate": "0.2", "kernel_size_1": "5", "learning_rate": 0.012118709090495042, "maxpool_1": "False", "model_optimizer": "adam", "n_conv_layers": 2, "n_layers": 1, "n_out_1": "32", "out_channels_1": "4", "stride_1": 3, "weight_decay": "0.0", "amsgrad": "True", "batch_norm_2": "True", "dropout_2": "False", "kernel_size_2": "5", "maxpool_2": "False", "out_channels_2": "16", "stride_2": 2}, {}]
[[23, 0, 1], {"activation": "relu", "batch_norm_1": "True", "batch_size": "64", "dropout_1": "False", "dropout_rate": "0.2", "kernel_size_1": "7", "learning_rate": 0.0019534314140925713, "maxpool_1": "True", "model_optimizer": "sgd", "n_conv_layers": 1, "n_layers": 1, "n_out_1": "256", "out_channels_1": "16", "stride_1": 2, "weight_decay": "0.0", "maxpool_kernel_size_1": "4", "maxpool_stride_1": 3, "momentum": 0.5690755055724512}, {}]
[[24, 0, 0], {"activation": "tanh", "batch_norm_1": "False", "batch_size": "64", "dropout_1": "False", "dropout_rate": "0.3", "kernel_size_1": "7", "learning_rate": 0.00509425319599458, "maxpool_1": "False", "model_optimizer": "adad", "n_conv_layers": 2, "n_layers": 1, "n_out_1": "32", "out_channels_1": "8", "stride_1": 1, "weight_decay": "0.1", "batch_norm_2": "False", "dropout_2": "True", "kernel_size_2": "5", "maxpool_2": "True", "out_channels_2": "16", "stride_2": 1, "maxpool_kernel_size_2": "2", "maxpool_stride_2": 3}, {}]
[[24, 0, 1], {"activation": "relu", "batch_norm_1": "False", "batch_size": "128", "dropout_1": "True", "dropout_rate": "0.3", "kernel_size_1": "3", "learning_rate": 0.004239640038049674, "maxpool_1": "True", "model_optimizer": "sgd", "n_conv_layers": 1, "n_layers": 1, "n_out_1": "256", "out_channels_1": "16", "stride_1": 1, "weight_decay": "0.1", "maxpool_kernel_size_1": "6", "maxpool_stride_1": 1, "momentum": 0.8653966088419023}, {}]
[[25, 0, 0], {"activation": "sigmoid", "batch_norm_1": "True", "batch_size": "32", "dropout_1": "False", "dropout_rate": "0.1", "kernel_size_1": "5", "learning_rate": 0.020466101447567563, "maxpool_1": "True", "model_optimizer": "adad", "n_conv_layers": 1, "n_layers": 1, "n_out_1": "128", "out_channels_1": "16", "stride_1": 3, "weight_decay": "0.1", "maxpool_kernel_size_1": "4", "maxpool_stride_1": 2}, {}]
[[25, 0, 1], {"activation": "tanh", "batch_norm_1": "True", "batch_size": "64", "dropout_1": "True", "dropout_rate": "0.2", "kernel_size_1": "7", "learning_rate": 0.002008171811159086, "maxpool_1": "False", "model_optimizer": "adam", "n_conv_layers": 2, "n_layers": 2, "n_out_1": "64", "out_channels_1": "16", "stride_1": 1, "weight_decay": "0.01", "amsgrad": "False", "batch_norm_2": "True", "dropout_2": "False", "kernel_size_2": "3", "maxpool_2": "False", "n_out_2": "512", "out_channels_2": "16", "stride_2": 2}, {}]
[[26, 0, 0], {"activation": "tanh", "batch_norm_1": "False", "batch_size": "64", "dropout_1": "False", "dropout_rate": "0.2", "kernel_size_1": "5", "learning_rate": 0.006049618353052115, "maxpool_1": "True", "model_optimizer": "adad", "n_conv_layers": 3, "n_layers": 2, "n_out_1": "512", "out_channels_1": "16", "stride_1": 2, "weight_decay": "0.0", "batch_norm_2": "False", "batch_norm_3": "True", "dropout_2": "False", "dropout_3": "False", "kernel_size_2": "2", "kernel_size_3": "1", "maxpool_2": "False", "maxpool_3": "True", "maxpool_kernel_size_1": "2", "maxpool_stride_1": 1, "n_out_2": "32", "out_channels_2": "16", "out_channels_3": "16", "stride_2": 1, "stride_3": 1, "maxpool_kernel_size_3": "2", "maxpool_stride_3": 3}, {}]
[[26, 0, 1], {"activation": "relu", "batch_norm_1": "False", "batch_size": "512", "dropout_1": "True", "dropout_rate": "0.2", "kernel_size_1": "7", "learning_rate": 0.0005308566944483679, "maxpool_1": "True", "model_optimizer": "adam", "n_conv_layers": 3, "n_layers": 1, "n_out_1": "64", "out_channels_1": "4", "stride_1": 3, "weight_decay": "0.1", "amsgrad": "False", "batch_norm_2": "False", "batch_norm_3": "True", "dropout_2": "False", "dropout_3": "False", "kernel_size_2": "3", "kernel_size_3": "3", "maxpool_2": "True", "maxpool_3": "False", "maxpool_kernel_size_1": "3", "maxpool_stride_1": 1, "out_channels_2": "32", "out_channels_3": "64", "stride_2": 3, "stride_3": 1, "maxpool_kernel_size_2": "6", "maxpool_stride_2": 1}, {}]
[[27, 0, 0], {"activation": "relu", "batch_norm_1": "True", "batch_size": "256", "dropout_1": "True", "dropout_rate": "0.2", "kernel_size_1": "3", "learning_rate": 0.015062599632917228, "maxpool_1": "True", "model_optimizer": "adam", "n_conv_layers": 2, "n_layers": 1, "n_out_1": "256", "out_channels_1": "4", "stride_1": 2, "weight_decay": "0.0", "amsgrad": "True", "batch_norm_2": "False", "dropout_2": "True", "kernel_size_2": "5", "maxpool_2": "True", "maxpool_kernel_size_1": "2", "maxpool_stride_1": 3, "out_channels_2": "16", "stride_2": 2, "maxpool_kernel_size_2": "5", "maxpool_stride_2": 3}, {}]
[[27, 0, 1], {"activation": "sigmoid", "batch_norm_1": "False", "batch_size": "32", "dropout_1": "False", "dropout_rate": "0.2", "kernel_size_1": "3", "learning_rate": 0.0023187671463440157, "maxpool_1": "True", "model_optimizer": "adam", "n_conv_layers": 1, "n_layers": 1, "n_out_1": "64", "out_channels_1": "8", "stride_1": 3, "weight_decay": "0.01", "amsgrad": "True", "maxpool_kernel_size_1": "5", "maxpool_stride_1": 2}, {}]
[[28, 0, 0], {"activation": "tanh", "batch_norm_1": "False", "batch_size": "128", "dropout_1": "True", "dropout_rate": "0.3", "kernel_size_1": "7", "learning_rate": 0.010042449801809503, "maxpool_1": "True", "model_optimizer": "adad", "n_conv_layers": 3, "n_layers": 2, "n_out_1": "512", "out_channels_1": "16", "stride_1": 3, "weight_decay": "0.1", "batch_norm_2": "False", "batch_norm_3": "False", "dropout_2": "True", "dropout_3": "False", "kernel_size_2": "2", "kernel_size_3": "1", "maxpool_2": "True", "maxpool_3": "False", "maxpool_kernel_size_1": "4", "maxpool_stride_1": 1, "n_out_2": "32", "out_channels_2": "32", "out_channels_3": "8", "stride_2": 2, "stride_3": 1, "maxpool_kernel_size_2": "4", "maxpool_stride_2": 3}, {}]
[[28, 0, 1], {"activation": "tanh", "batch_norm_1": "False", "batch_size": "512", "dropout_1": "False", "dropout_rate": "0.3", "kernel_size_1": "5", "learning_rate": 0.0005377013569451306, "maxpool_1": "True", "model_optimizer": "sgd", "n_conv_layers": 1, "n_layers": 1, "n_out_1": "256", "out_channels_1": "16", "stride_1": 1, "weight_decay": "0.1", "maxpool_kernel_size_1": "6", "maxpool_stride_1": 3, "momentum": 0.31760181803490234}, {}]
[[29, 0, 0], {"activation": "tanh", "batch_norm_1": "False", "batch_size": "256", "dropout_1": "True", "dropout_rate": "0.1", "kernel_size_1": "7", "learning_rate": 0.012477524883090417, "maxpool_1": "False", "model_optimizer": "sgd", "n_conv_layers": 3, "n_layers": 1, "n_out_1": "256", "out_channels_1": "16", "stride_1": 1, "weight_decay": "0.01", "batch_norm_2": "False", "batch_norm_3": "False", "dropout_2": "False", "dropout_3": "True", "kernel_size_2": "5", "kernel_size_3": "3", "maxpool_2": "True", "maxpool_3": "False", "momentum": 0.026154599341424896, "out_channels_2": "32", "out_channels_3": "8", "stride_2": 2, "stride_3": 2, "maxpool_kernel_size_2": "3", "maxpool_stride_2": 2}, {}]
[[29, 0, 1], {"activation": "relu", "batch_norm_1": "False", "batch_size": "128", "dropout_1": "False", "dropout_rate": "0.1", "kernel_size_1": "7", "learning_rate": 0.07939770850343329, "maxpool_1": "True", "model_optimizer": "sgd", "n_conv_layers": 1, "n_layers": 2, "n_out_1": "64", "out_channels_1": "8", "stride_1": 1, "weight_decay": "0.01", "maxpool_kernel_size_1": "4", "maxpool_stride_1": 3, "momentum": 0.3602217653100868, "n_out_2": "128"}, {}]
[[30, 0, 0], {"activation": "relu", "batch_norm_1": "False", "batch_size": "256", "dropout_1": "True", "dropout_rate": "0.1", "kernel_size_1": "7", "learning_rate": 0.009398341355233238, "maxpool_1": "True", "model_optimizer": "adam", "n_conv_layers": 1, "n_layers": 3, "n_out_1": "512", "out_channels_1": "8", "stride_1": 3, "weight_decay": "0.1", "amsgrad": "True", "maxpool_kernel_size_1": "2", "maxpool_stride_1": 3, "n_out_2": "256", "n_out_3": "32"}, {}]
[[30, 0, 1], {"activation": "tanh", "batch_norm_1": "False", "batch_size": "512", "dropout_1": "True", "dropout_rate": "0.3", "kernel_size_1": "7", "learning_rate": 0.025324379266723398, "maxpool_1": "True", "model_optimizer": "adam", "n_conv_layers": 2, "n_layers": 1, "n_out_1": "256", "out_channels_1": "16", "stride_1": 1, "weight_decay": "0.01", "amsgrad": "False", "batch_norm_2": "True", "dropout_2": "True", "kernel_size_2": "2", "maxpool_2": "False", "maxpool_kernel_size_1": "4", "maxpool_stride_1": 1, "out_channels_2": "32", "stride_2": 3}, {}]
[[31, 0, 0], {"activation": "tanh", "batch_norm_1": "False", "batch_size": "32", "dropout_1": "False", "dropout_rate": "0.2", "kernel_size_1": "5", "learning_rate": 0.0005454783813746796, "maxpool_1": "False", "model_optimizer": "sgd", "n_conv_layers": 1, "n_layers": 2, "n_out_1": "64", "out_channels_1": "8", "stride_1": 2, "weight_decay": "0.1", "momentum": 0.09435103529289553, "n_out_2": "128"}, {}]
[[31, 0, 1], {"activation": "relu", "batch_norm_1": "False", "batch_size": "32", "dropout_1": "False", "dropout_rate": "0.1", "kernel_size_1": "7", "learning_rate": 0.0024244861784333284, "maxpool_1": "False", "model_optimizer": "adad", "n_conv_layers": 3, "n_layers": 1, "n_out_1": "512", "out_channels_1": "8", "stride_1": 1, "weight_decay": "0.0", "batch_norm_2": "False", "batch_norm_3": "False", "dropout_2": "True", "dropout_3": "True", "kernel_size_2": "7", "kernel_size_3": "3", "maxpool_2": "False", "maxpool_3": "True", "out_channels_2": "16", "out_channels_3": "16", "stride_2": 2, "stride_3": 1, "maxpool_kernel_size_3": "3", "maxpool_stride_3": 1}, {}]
[[32, 0, 0], {"activation": "relu", "batch_norm_1": "True", "batch_size": "32", "dropout_1": "True", "dropout_rate": "0.2", "kernel_size_1": "5", "learning_rate": 0.00010526276667940653, "maxpool_1": "False", "model_optimizer": "adam", "n_conv_layers": 1, "n_layers": 1, "n_out_1": "512", "out_channels_1": "8", "stride_1": 3, "weight_decay": "0.0", "amsgrad": "True"}, {}]
[[32, 0, 1], {"activation": "tanh", "batch_norm_1": "False", "batch_size": "32", "dropout_1": "True", "dropout_rate": "0.1", "kernel_size_1": "5", "learning_rate": 0.018811379788559606, "maxpool_1": "False", "model_optimizer": "sgd", "n_conv_layers": 1, "n_layers": 2, "n_out_1": "128", "out_channels_1": "16", "stride_1": 1, "weight_decay": "0.0", "momentum": 0.665651808553556, "n_out_2": "32"}, {}]
[[33, 0, 0], {"activation": "sigmoid", "batch_norm_1": "True", "batch_size": "512", "dropout_1": "False", "dropout_rate": "0.1", "kernel_size_1": "5", "learning_rate": 0.07545504655544759, "maxpool_1": "False", "model_optimizer": "adam", "n_conv_layers": 1, "n_layers": 2, "n_out_1": "64", "out_channels_1": "16", "stride_1": 1, "weight_decay": "0.1", "amsgrad": "True", "n_out_2": "128"}, {}]
[[33, 0, 1], {"activation": "tanh", "batch_norm_1": "False", "batch_size": "256", "dropout_1": "False", "dropout_rate": "0.2", "kernel_size_1": "5", "learning_rate": 0.021690015426601938, "maxpool_1": "False", "model_optimizer": "adad", "n_conv_layers": 2, "n_layers": 2, "n_out_1": "64", "out_channels_1": "16", "stride_1": 2, "weight_decay": "0.0", "batch_norm_2": "True", "dropout_2": "False", "kernel_size_2": "3", "maxpool_2": "True", "n_out_2": "32", "out_channels_2": "8", "stride_2": 3, "maxpool_kernel_size_2": "4", "maxpool_stride_2": 2}, {}]
[[34, 0, 0], {"activation": "relu", "batch_norm_1": "False", "batch_size": "512", "dropout_1": "False", "dropout_rate": "0.1", "kernel_size_1": "3", "learning_rate": 0.001306299018765916, "maxpool_1": "False", "model_optimizer": "adam", "n_conv_layers": 1, "n_layers": 2, "n_out_1": "256", "out_channels_1": "4", "stride_1": 2, "weight_decay": "0.1", "amsgrad": "False", "n_out_2": "128"}, {}]
[[34, 0, 1], {"activation": "tanh", "batch_norm_1": "True", "batch_size": "128", "dropout_1": "False", "dropout_rate": "0.3", "kernel_size_1": "3", "learning_rate": 0.06598721736777205, "maxpool_1": "False", "model_optimizer": "adam", "n_conv_layers": 1, "n_layers": 1, "n_out_1": "512", "out_channels_1": "8", "stride_1": 2, "weight_decay": "0.01", "amsgrad": "True"}, {}]
[[35, 0, 0], {"activation": "tanh", "batch_norm_1": "False", "batch_size": "32", "dropout_1": "True", "dropout_rate": "0.3", "kernel_size_1": "7", "learning_rate": 0.002297047198468411, "maxpool_1": "False", "model_optimizer": "sgd", "n_conv_layers": 2, "n_layers": 1, "n_out_1": "128", "out_channels_1": "8", "stride_1": 3, "weight_decay": "0.1", "batch_norm_2": "True", "dropout_2": "False", "kernel_size_2": "3", "maxpool_2": "True", "momentum": 0.049681659815867675, "out_channels_2": "32", "stride_2": 3, "maxpool_kernel_size_2": "3", "maxpool_stride_2": 1}, {}]
[[35, 0, 1], {"activation": "relu", "batch_norm_1": "False", "batch_size": "512", "dropout_1": "False", "dropout_rate": "0.2", "kernel_size_1": "5", "learning_rate": 0.021266385754057076, "maxpool_1": "False", "model_optimizer": "adam", "n_conv_layers": 1, "n_layers": 2, "n_out_1": "64", "out_channels_1": "16", "stride_1": 3, "weight_decay": "0.0", "amsgrad": "True", "n_out_2": "32"}, {}]
[[36, 0, 0], {"activation": "sigmoid", "batch_norm_1": "True", "batch_size": "256", "dropout_1": "False", "dropout_rate": "0.2", "kernel_size_1": "5", "learning_rate": 0.04491047485015088, "maxpool_1": "False", "model_optimizer": "adad", "n_conv_layers": 2, "n_layers": 1, "n_out_1": "512", "out_channels_1": "8", "stride_1": 2, "weight_decay": "0.0", "batch_norm_2": "True", "dropout_2": "True", "kernel_size_2": "3", "maxpool_2": "False", "out_channels_2": "8", "stride_2": 3}, {}]
[[36, 0, 1], {"activation": "relu", "batch_norm_1": "False", "batch_size": "64", "dropout_1": "True", "dropout_rate": "0.3", "kernel_size_1": "3", "learning_rate": 0.000737954750709521, "maxpool_1": "False", "model_optimizer": "adad", "n_conv_layers": 1, "n_layers": 1, "n_out_1": "128", "out_channels_1": "8", "stride_1": 3, "weight_decay": "0.1"}, {}]
[[37, 0, 0], {"activation": "sigmoid", "batch_norm_1": "False", "batch_size": "64", "dropout_1": "True", "dropout_rate": "0.2", "kernel_size_1": "5", "learning_rate": 0.00017346248107430638, "maxpool_1": "False", "model_optimizer": "adad", "n_conv_layers": 2, "n_layers": 2, "n_out_1": "64", "out_channels_1": "4", "stride_1": 2, "weight_decay": "0.01", "batch_norm_2": "False", "dropout_2": "True", "kernel_size_2": "3", "maxpool_2": "False", "n_out_2": "128", "out_channels_2": "32", "stride_2": 2}, {}]
[[37, 0, 1], {"activation": "relu", "batch_norm_1": "False", "batch_size": "64", "dropout_1": "False", "dropout_rate": "0.2", "kernel_size_1": "5", "learning_rate": 0.0024737049572648197, "maxpool_1": "False", "model_optimizer": "sgd", "n_conv_layers": 1, "n_layers": 1, "n_out_1": "128", "out_channels_1": "4", "stride_1": 1, "weight_decay": "0.01", "momentum": 0.005456387036364839}, {}]
[[38, 0, 0], {"activation": "sigmoid", "batch_norm_1": "True", "batch_size": "64", "dropout_1": "False", "dropout_rate": "0.3", "kernel_size_1": "3", "learning_rate": 0.0005209230581997282, "maxpool_1": "True", "model_optimizer": "adam", "n_conv_layers": 2, "n_layers": 1, "n_out_1": "32", "out_channels_1": "16", "stride_1": 1, "weight_decay": "0.1", "amsgrad": "True", "batch_norm_2": "True", "dropout_2": "False", "kernel_size_2": "2", "maxpool_2": "True", "maxpool_kernel_size_1": "3", "maxpool_stride_1": 3, "out_channels_2": "32", "stride_2": 2, "maxpool_kernel_size_2": "5", "maxpool_stride_2": 1}, {}]
[[38, 0, 1], {"activation": "sigmoid", "batch_norm_1": "False", "batch_size": "32", "dropout_1": "False", "dropout_rate": "0.3", "kernel_size_1": "5", "learning_rate": 0.041637723410695354, "maxpool_1": "False", "model_optimizer": "sgd", "n_conv_layers": 1, "n_layers": 1, "n_out_1": "512", "out_channels_1": "8", "stride_1": 1, "weight_decay": "0.1", "momentum": 0.016854103578755563}, {}]
[[39, 0, 0], {"activation": "relu", "batch_norm_1": "False", "batch_size": "128", "dropout_1": "False", "dropout_rate": "0.1", "kernel_size_1": "5", "learning_rate": 0.0013979307352946382, "maxpool_1": "True", "model_optimizer": "adad", "n_conv_layers": 2, "n_layers": 2, "n_out_1": "512", "out_channels_1": "4", "stride_1": 1, "weight_decay": "0.0", "batch_norm_2": "True", "dropout_2": "True", "kernel_size_2": "3", "maxpool_2": "False", "maxpool_kernel_size_1": "3", "maxpool_stride_1": 1, "n_out_2": "256", "out_channels_2": "8", "stride_2": 3}, {}]
[[39, 0, 1], {"activation": "relu", "batch_norm_1": "True", "batch_size": "256", "dropout_1": "False", "dropout_rate": "0.1", "kernel_size_1": "7", "learning_rate": 0.00010549081094036958, "maxpool_1": "True", "model_optimizer": "adad", "n_conv_layers": 1, "n_layers": 1, "n_out_1": "128", "out_channels_1": "16", "stride_1": 2, "weight_decay": "0.1", "maxpool_kernel_size_1": "6", "maxpool_stride_1": 3}, {}]
[[40, 0, 0], {"activation": "sigmoid", "batch_norm_1": "False", "batch_size": "128", "dropout_1": "True", "dropout_rate": "0.3", "kernel_size_1": "7", "learning_rate": 0.0006595959773743046, "maxpool_1": "True", "model_optimizer": "sgd", "n_conv_layers": 2, "n_layers": 1, "n_out_1": "256", "out_channels_1": "16", "stride_1": 3, "weight_decay": "0.1", "batch_norm_2": "False", "dropout_2": "True", "kernel_size_2": "5", "maxpool_2": "False", "maxpool_kernel_size_1": "4", "maxpool_stride_1": 3, "momentum": 0.2401173714997294, "out_channels_2": "8", "stride_2": 3}, {}]
[[40, 0, 1], {"activation": "tanh", "batch_norm_1": "True", "batch_size": "32", "dropout_1": "True", "dropout_rate": "0.3", "kernel_size_1": "7", "learning_rate": 0.05923898646637423, "maxpool_1": "False", "model_optimizer": "adam", "n_conv_layers": 1, "n_layers": 2, "n_out_1": "256", "out_channels_1": "16", "stride_1": 2, "weight_decay": "0.01", "amsgrad": "True", "n_out_2": "128"}, {}]
[[41, 0, 0], {"activation": "tanh", "batch_norm_1": "False", "batch_size": "64", "dropout_1": "True", "dropout_rate": "0.3", "kernel_size_1": "5", "learning_rate": 0.0006227323209505896, "maxpool_1": "False", "model_optimizer": "adam", "n_conv_layers": 2, "n_layers": 1, "n_out_1": "512", "out_channels_1": "8", "stride_1": 3, "weight_decay": "0.1", "amsgrad": "False", "batch_norm_2": "True", "dropout_2": "False", "kernel_size_2": "3", "maxpool_2": "False", "out_channels_2": "8", "stride_2": 3}, {}]
[[41, 0, 1], {"activation": "relu", "batch_norm_1": "True", "batch_size": "32", "dropout_1": "True", "dropout_rate": "0.1", "kernel_size_1": "3", "learning_rate": 0.0011768327579817928, "maxpool_1": "False", "model_optimizer": "adad", "n_conv_layers": 2, "n_layers": 1, "n_out_1": "64", "out_channels_1": "16", "stride_1": 2, "weight_decay": "0.01", "batch_norm_2": "True", "dropout_2": "True", "kernel_size_2": "3", "maxpool_2": "False", "out_channels_2": "32", "stride_2": 2}, {}]
[[42, 0, 0], {"activation": "sigmoid", "batch_norm_1": "False", "batch_size": "512", "dropout_1": "False", "dropout_rate": "0.3", "kernel_size_1": "5", "learning_rate": 0.0001090584308255239, "maxpool_1": "False", "model_optimizer": "adad", "n_conv_layers": 1, "n_layers": 2, "n_out_1": "512", "out_channels_1": "4", "stride_1": 3, "weight_decay": "0.1", "n_out_2": "64"}, {}]
[[42, 0, 1], {"activation": "tanh", "batch_norm_1": "False", "batch_size": "32", "dropout_1": "False", "dropout_rate": "0.2", "kernel_size_1": "5", "learning_rate": 0.0011616279655781794, "maxpool_1": "False", "model_optimizer": "adam", "n_conv_layers": 1, "n_layers": 1, "n_out_1": "128", "out_channels_1": "16", "stride_1": 3, "weight_decay": "0.0", "amsgrad": "False"}, {}]
[[43, 0, 0], {"activation": "sigmoid", "batch_norm_1": "False", "batch_size": "32", "dropout_1": "False", "dropout_rate": "0.2", "kernel_size_1": "5", "learning_rate": 0.0002333200251059159, "maxpool_1": "True", "model_optimizer": "adam", "n_conv_layers": 2, "n_layers": 1, "n_out_1": "256", "out_channels_1": "4", "stride_1": 2, "weight_decay": "0.01", "amsgrad": "False", "batch_norm_2": "True", "dropout_2": "True", "kernel_size_2": "3", "maxpool_2": "True", "maxpool_kernel_size_1": "5", "maxpool_stride_1": 2, "out_channels_2": "8", "stride_2": 1, "maxpool_kernel_size_2": "3", "maxpool_stride_2": 1}, {}]
[[43, 0, 1], {"activation": "relu", "batch_norm_1": "False", "batch_size": "64", "dropout_1": "False", "dropout_rate": "0.2", "kernel_size_1": "7", "learning_rate": 0.004045182866087154, "maxpool_1": "False", "model_optimizer": "sgd", "n_conv_layers": 3, "n_layers": 1, "n_out_1": "128", "out_channels_1": "4", "stride_1": 2, "weight_decay": "0.01", "batch_norm_2": "True", "batch_norm_3": "True", "dropout_2": "True", "dropout_3": "False", "kernel_size_2": "7", "kernel_size_3": "1", "maxpool_2": "True", "maxpool_3": "False", "momentum": 0.9244398344205782, "out_channels_2": "8", "out_channels_3": "32", "stride_2": 1, "stride_3": 2, "maxpool_kernel_size_2": "2", "maxpool_stride_2": 2}, {}]
[[44, 0, 0], {"activation": "sigmoid", "batch_norm_1": "False", "batch_size": "512", "dropout_1": "False", "dropout_rate": "0.1", "kernel_size_1": "7", "learning_rate": 0.010653969018822282, "maxpool_1": "False", "model_optimizer": "adad", "n_conv_layers": 1, "n_layers": 1, "n_out_1": "64", "out_channels_1": "16", "stride_1": 3, "weight_decay": "0.1"}, {}]
[[44, 0, 1], {"activation": "sigmoid", "batch_norm_1": "False", "batch_size": "512", "dropout_1": "False", "dropout_rate": "0.1", "kernel_size_1": "3", "learning_rate": 0.03709374847514048, "maxpool_1": "False", "model_optimizer": "adad", "n_conv_layers": 3, "n_layers": 1, "n_out_1": "512", "out_channels_1": "8", "stride_1": 2, "weight_decay": "0.0", "batch_norm_2": "True", "batch_norm_3": "False", "dropout_2": "False", "dropout_3": "False", "kernel_size_2": "2", "kernel_size_3": "3", "maxpool_2": "True", "maxpool_3": "True", "out_channels_2": "16", "out_channels_3": "8", "stride_2": 3, "stride_3": 3, "maxpool_kernel_size_2": "5", "maxpool_kernel_size_3": "3", "maxpool_stride_2": 2, "maxpool_stride_3": 1}, {}]
[[45, 0, 0], {"activation": "sigmoid", "batch_norm_1": "True", "batch_size": "128", "dropout_1": "False", "dropout_rate": "0.1", "kernel_size_1": "3", "learning_rate": 0.0005063295010145745, "maxpool_1": "False", "model_optimizer": "sgd", "n_conv_layers": 3, "n_layers": 1, "n_out_1": "128", "out_channels_1": "16", "stride_1": 2, "weight_decay": "0.1", "batch_norm_2": "False", "batch_norm_3": "True", "dropout_2": "True", "dropout_3": "True", "kernel_size_2": "3", "kernel_size_3": "5", "maxpool_2": "True", "maxpool_3": "False", "momentum": 0.8850770405822865, "out_channels_2": "16", "out_channels_3": "16", "stride_2": 3, "stride_3": 3, "maxpool_kernel_size_2": "5", "maxpool_stride_2": 1}, {}]
[[45, 0, 1], {"activation": "sigmoid", "batch_norm_1": "True", "batch_size": "512", "dropout_1": "True", "dropout_rate": "0.2", "kernel_size_1": "7", "learning_rate": 0.0006715696820018984, "maxpool_1": "True", "model_optimizer": "sgd", "n_conv_layers": 2, "n_layers": 1, "n_out_1": "32", "out_channels_1": "16", "stride_1": 2, "weight_decay": "0.1", "batch_norm_2": "False", "dropout_2": "True", "kernel_size_2": "2", "maxpool_2": "False", "maxpool_kernel_size_1": "5", "maxpool_stride_1": 3, "momentum": 0.03086550938783223, "out_channels_2": "32", "stride_2": 2}, {}]
[[46, 0, 0], {"activation": "relu", "batch_norm_1": "True", "batch_size": "256", "dropout_1": "False", "dropout_rate": "0.3", "kernel_size_1": "5", "learning_rate": 0.0015222219755041532, "maxpool_1": "True", "model_optimizer": "sgd", "n_conv_layers": 1, "n_layers": 1, "n_out_1": "128", "out_channels_1": "4", "stride_1": 1, "weight_decay": "0.0", "maxpool_kernel_size_1": "6", "maxpool_stride_1": 2, "momentum": 0.33662083506617324}, {}]
[[46, 0, 1], {"activation": "tanh", "batch_norm_1": "True", "batch_size": "64", "dropout_1": "False", "dropout_rate": "0.1", "kernel_size_1": "5", "learning_rate": 0.007925948466073352, "maxpool_1": "False", "model_optimizer": "adad", "n_conv_layers": 1, "n_layers": 1, "n_out_1": "256", "out_channels_1": "4", "stride_1": 1, "weight_decay": "0.0"}, {}]
[[47, 0, 0], {"activation": "relu", "batch_norm_1": "False", "batch_size": "32", "dropout_1": "False", "dropout_rate": "0.3", "kernel_size_1": "7", "learning_rate": 0.0008185459047932044, "maxpool_1": "True", "model_optimizer": "adam", "n_conv_layers": 3, "n_layers": 1, "n_out_1": "512", "out_channels_1": "16", "stride_1": 2, "weight_decay": "0.0", "amsgrad": "False", "batch_norm_2": "True", "batch_norm_3": "True", "dropout_2": "False", "dropout_3": "False", "kernel_size_2": "3", "kernel_size_3": "5", "maxpool_2": "False", "maxpool_3": "True", "maxpool_kernel_size_1": "2", "maxpool_stride_1": 3, "out_channels_2": "32", "out_channels_3": "16", "stride_2": 2, "stride_3": 2, "maxpool_kernel_size_3": "3", "maxpool_stride_3": 3}, {}]
[[47, 0, 1], {"activation": "tanh", "batch_norm_1": "False", "batch_size": "512", "dropout_1": "True", "dropout_rate": "0.3", "kernel_size_1": "3", "learning_rate": 0.014445289439832388, "maxpool_1": "True", "model_optimizer": "sgd", "n_conv_layers": 3, "n_layers": 1, "n_out_1": "128", "out_channels_1": "16", "stride_1": 3, "weight_decay": "0.0", "batch_norm_2": "False", "batch_norm_3": "False", "dropout_2": "True", "dropout_3": "True", "kernel_size_2": "3", "kernel_size_3": "3", "maxpool_2": "False", "maxpool_3": "False", "maxpool_kernel_size_1": "6", "maxpool_stride_1": 1, "momentum": 0.3013029980506052, "out_channels_2": "16", "out_channels_3": "64", "stride_2": 2, "stride_3": 3}, {}]
[[48, 0, 0], {"activation": "relu", "batch_norm_1": "True", "batch_size": "64", "dropout_1": "True", "dropout_rate": "0.2", "kernel_size_1": "7", "learning_rate": 0.0005538772244047435, "maxpool_1": "False", "model_optimizer": "sgd", "n_conv_layers": 1, "n_layers": 3, "n_out_1": "256", "out_channels_1": "8", "stride_1": 1, "weight_decay": "0.0", "momentum": 0.9458589859658297, "n_out_2": "128", "n_out_3": "32"}, {}]
[[48, 0, 1], {"activation": "relu", "batch_norm_1": "True", "batch_size": "128", "dropout_1": "True", "dropout_rate": "0.2", "kernel_size_1": "5", "learning_rate": 0.0018737548438556148, "maxpool_1": "True", "model_optimizer": "adam", "n_conv_layers": 3, "n_layers": 1, "n_out_1": "256", "out_channels_1": "4", "stride_1": 2, "weight_decay": "0.0", "amsgrad": "False", "batch_norm_2": "True", "batch_norm_3": "False", "dropout_2": "False", "dropout_3": "True", "kernel_size_2": "3", "kernel_size_3": "3", "maxpool_2": "False", "maxpool_3": "False", "maxpool_kernel_size_1": "4", "maxpool_stride_1": 2, "out_channels_2": "32", "out_channels_3": "8", "stride_2": 3, "stride_3": 3}, {}]
[[49, 0, 0], {"activation": "tanh", "batch_norm_1": "True", "batch_size": "64", "dropout_1": "True", "dropout_rate": "0.3", "kernel_size_1": "5", "learning_rate": 0.008127167394054873, "maxpool_1": "True", "model_optimizer": "adam", "n_conv_layers": 1, "n_layers": 2, "n_out_1": "64", "out_channels_1": "8", "stride_1": 1, "weight_decay": "0.01", "amsgrad": "False", "maxpool_kernel_size_1": "3", "maxpool_stride_1": 3, "n_out_2": "64"}, {}]
[[49, 0, 1], {"activation": "sigmoid", "batch_norm_1": "False", "batch_size": "512", "dropout_1": "False", "dropout_rate": "0.1", "kernel_size_1": "3", "learning_rate": 0.006915504966072007, "maxpool_1": "True", "model_optimizer": "sgd", "n_conv_layers": 2, "n_layers": 1, "n_out_1": "256", "out_channels_1": "16", "stride_1": 2, "weight_decay": "0.01", "batch_norm_2": "True", "dropout_2": "True", "kernel_size_2": "3", "maxpool_2": "True", "maxpool_kernel_size_1": "3", "maxpool_stride_1": 1, "momentum": 0.5257954596265901, "out_channels_2": "8", "stride_2": 1, "maxpool_kernel_size_2": "3", "maxpool_stride_2": 1}, {}]
[[50, 0, 0], {"activation": "sigmoid", "batch_norm_1": "True", "batch_size": "64", "dropout_1": "True", "dropout_rate": "0.3", "kernel_size_1": "3", "learning_rate": 0.0002244114780470941, "maxpool_1": "False", "model_optimizer": "sgd", "n_conv_layers": 3, "n_layers": 2, "n_out_1": "256", "out_channels_1": "16", "stride_1": 2, "weight_decay": "0.1", "batch_norm_2": "True", "batch_norm_3": "False", "dropout_2": "True", "dropout_3": "True", "kernel_size_2": "3", "kernel_size_3": "3", "maxpool_2": "True", "maxpool_3": "False", "momentum": 0.40414851635173477, "n_out_2": "64", "out_channels_2": "32", "out_channels_3": "16", "stride_2": 1, "stride_3": 2, "maxpool_kernel_size_2": "4", "maxpool_stride_2": 2}, {}]
[[50, 0, 1], {"activation": "sigmoid", "batch_norm_1": "True", "batch_size": "512", "dropout_1": "True", "dropout_rate": "0.2", "kernel_size_1": "7", "learning_rate": 0.0034362249244435606, "maxpool_1": "True", "model_optimizer": "adad", "n_conv_layers": 1, "n_layers": 1, "n_out_1": "64", "out_channels_1": "4", "stride_1": 2, "weight_decay": "0.01", "maxpool_kernel_size_1": "2", "maxpool_stride_1": 1}, {}]
[[51, 0, 0], {"activation": "sigmoid", "batch_norm_1": "False", "batch_size": "512", "dropout_1": "True", "dropout_rate": "0.3", "kernel_size_1": "3", "learning_rate": 0.0298242459491375, "maxpool_1": "False", "model_optimizer": "adad", "n_conv_layers": 1, "n_layers": 1, "n_out_1": "32", "out_channels_1": "8", "stride_1": 2, "weight_decay": "0.01"}, {}]
[[51, 0, 1], {"activation": "tanh", "batch_norm_1": "True", "batch_size": "512", "dropout_1": "False", "dropout_rate": "0.2", "kernel_size_1": "5", "learning_rate": 0.0038362908696346985, "maxpool_1": "False", "model_optimizer": "sgd", "n_conv_layers": 1, "n_layers": 1, "n_out_1": "256", "out_channels_1": "8", "stride_1": 2, "weight_decay": "0.0", "momentum": 0.493871083001795}, {}]
[[52, 0, 0], {"activation": "sigmoid", "batch_norm_1": "False", "batch_size": "256", "dropout_1": "True", "dropout_rate": "0.2", "kernel_size_1": "3", "learning_rate": 0.00019737899633768207, "maxpool_1": "True", "model_optimizer": "adad", "n_conv_layers": 1, "n_layers": 1, "n_out_1": "128", "out_channels_1": "4", "stride_1": 2, "weight_decay": "0.0", "maxpool_kernel_size_1": "5", "maxpool_stride_1": 2}, {}]
[[52, 0, 1], {"activation": "relu", "batch_norm_1": "True", "batch_size": "64", "dropout_1": "False", "dropout_rate": "0.2", "kernel_size_1": "3", "learning_rate": 0.0013695933736404915, "maxpool_1": "False", "model_optimizer": "adad", "n_conv_layers": 3, "n_layers": 1, "n_out_1": "256", "out_channels_1": "8", "stride_1": 3, "weight_decay": "0.01", "batch_norm_2": "False", "batch_norm_3": "False", "dropout_2": "True", "dropout_3": "True", "kernel_size_2": "2", "kernel_size_3": "5", "maxpool_2": "False", "maxpool_3": "False", "out_channels_2": "32", "out_channels_3": "64", "stride_2": 3, "stride_3": 2}, {}]
[[53, 0, 0], {"activation": "tanh", "batch_norm_1": "False", "batch_size": "256", "dropout_1": "False", "dropout_rate": "0.2", "kernel_size_1": "3", "learning_rate": 0.0016226846463483393, "maxpool_1": "False", "model_optimizer": "adam", "n_conv_layers": 2, "n_layers": 1, "n_out_1": "32", "out_channels_1": "8", "stride_1": 1, "weight_decay": "0.1", "amsgrad": "False", "batch_norm_2": "False", "dropout_2": "False", "kernel_size_2": "3", "maxpool_2": "True", "out_channels_2": "8", "stride_2": 3, "maxpool_kernel_size_2": "2", "maxpool_stride_2": 1}, {}]
[[53, 0, 1], {"activation": "relu", "batch_norm_1": "False", "batch_size": "512", "dropout_1": "False", "dropout_rate": "0.3", "kernel_size_1": "5", "learning_rate": 0.014515589655414815, "maxpool_1": "False", "model_optimizer": "adad", "n_conv_layers": 2, "n_layers": 2, "n_out_1": "256", "out_channels_1": "8", "stride_1": 3, "weight_decay": "0.01", "batch_norm_2": "False", "dropout_2": "True", "kernel_size_2": "5", "maxpool_2": "False", "n_out_2": "32", "out_channels_2": "16", "stride_2": 2}, {}]
[[54, 0, 0], {"activation": "relu", "batch_norm_1": "False", "batch_size": "64", "dropout_1": "True", "dropout_rate": "0.2", "kernel_size_1": "7", "learning_rate": 0.0014918985250066527, "maxpool_1": "True", "model_optimizer": "adam", "n_conv_layers": 3, "n_layers": 1, "n_out_1": "32", "out_channels_1": "4", "stride_1": 2, "weight_decay": "0.01", "amsgrad": "False", "batch_norm_2": "True", "batch_norm_3": "False", "dropout_2": "False", "dropout_3": "False", "kernel_size_2": "2", "kernel_size_3": "5", "maxpool_2": "False", "maxpool_3": "False", "maxpool_kernel_size_1": "3", "maxpool_stride_1": 3, "out_channels_2": "32", "out_channels_3": "32", "stride_2": 3, "stride_3": 2}, {}]
[[54, 0, 1], {"activation": "tanh", "batch_norm_1": "False", "batch_size": "128", "dropout_1": "True", "dropout_rate": "0.3", "kernel_size_1": "3", "learning_rate": 0.0020236780408337315, "maxpool_1": "False", "model_optimizer": "sgd", "n_conv_layers": 3, "n_layers": 2, "n_out_1": "64", "out_channels_1": "8", "stride_1": 3, "weight_decay": "0.0", "batch_norm_2": "False", "batch_norm_3": "True", "dropout_2": "True", "dropout_3": "False", "kernel_size_2": "7", "kernel_size_3": "5", "maxpool_2": "True", "maxpool_3": "False", "momentum": 0.6958054038949854, "n_out_2": "32", "out_channels_2": "16", "out_channels_3": "32", "stride_2": 2, "stride_3": 1, "maxpool_kernel_size_2": "4", "maxpool_stride_2": 1}, {}]
[[55, 0, 0], {"activation": "relu", "batch_norm_1": "False", "batch_size": "512", "dropout_1": "True", "dropout_rate": "0.1", "kernel_size_1": "3", "learning_rate": 0.001710679732195515, "maxpool_1": "False", "model_optimizer": "adam", "n_conv_layers": 1, "n_layers": 2, "n_out_1": "128", "out_channels_1": "8", "stride_1": 2, "weight_decay": "0.01", "amsgrad": "False", "n_out_2": "64"}, {}]
[[55, 0, 1], {"activation": "tanh", "batch_norm_1": "True", "batch_size": "64", "dropout_1": "False", "dropout_rate": "0.3", "kernel_size_1": "7", "learning_rate": 0.007703358308456778, "maxpool_1": "False", "model_optimizer": "adam", "n_conv_layers": 3, "n_layers": 1, "n_out_1": "512", "out_channels_1": "4", "stride_1": 3, "weight_decay": "0.1", "amsgrad": "False", "batch_norm_2": "False", "batch_norm_3": "False", "dropout_2": "True", "dropout_3": "True", "kernel_size_2": "7", "kernel_size_3": "3", "maxpool_2": "False", "maxpool_3": "False", "out_channels_2": "32", "out_channels_3": "64", "stride_2": 3, "stride_3": 3}, {}]
[[56, 0, 0], {"activation": "sigmoid", "batch_norm_1": "False", "batch_size": "128", "dropout_1": "False", "dropout_rate": "0.2", "kernel_size_1": "7", "learning_rate": 0.006659084688569174, "maxpool_1": "False", "model_optimizer": "adad", "n_conv_layers": 1, "n_layers": 1, "n_out_1": "256", "out_channels_1": "4", "stride_1": 2, "weight_decay": "0.01"}, {}]
[[56, 0, 1], {"activation": "relu", "batch_norm_1": "False", "batch_size": "64", "dropout_1": "False", "dropout_rate": "0.2", "kernel_size_1": "5", "learning_rate": 0.07731434468955531, "maxpool_1": "False", "model_optimizer": "adad", "n_conv_layers": 1, "n_layers": 1, "n_out_1": "128", "out_channels_1": "4", "stride_1": 2, "weight_decay": "0.01"}, {}]
[[57, 0, 0], {"activation": "sigmoid", "batch_norm_1": "True", "batch_size": "32", "dropout_1": "False", "dropout_rate": "0.1", "kernel_size_1": "7", "learning_rate": 0.0031612760707815674, "maxpool_1": "False", "model_optimizer": "sgd", "n_conv_layers": 3, "n_layers": 1, "n_out_1": "256", "out_channels_1": "8", "stride_1": 1, "weight_decay": "0.0", "batch_norm_2": "True", "batch_norm_3": "False", "dropout_2": "True", "dropout_3": "False", "kernel_size_2": "7", "kernel_size_3": "3", "maxpool_2": "False", "maxpool_3": "False", "momentum": 0.3591284428625306, "out_channels_2": "8", "out_channels_3": "8", "stride_2": 3, "stride_3": 3}, {}]
[[57, 0, 1], {"activation": "relu", "batch_norm_1": "False", "batch_size": "512", "dropout_1": "False", "dropout_rate": "0.3", "kernel_size_1": "7", "learning_rate": 0.00019165587417186087, "maxpool_1": "False", "model_optimizer": "adad", "n_conv_layers": 1, "n_layers": 2, "n_out_1": "64", "out_channels_1": "4", "stride_1": 3, "weight_decay": "0.01", "n_out_2": "128"}, {}]
[[58, 0, 0], {"activation": "sigmoid", "batch_norm_1": "True", "batch_size": "512", "dropout_1": "True", "dropout_rate": "0.1", "kernel_size_1": "7", "learning_rate": 0.008807222497992392, "maxpool_1": "False", "model_optimizer": "adad", "n_conv_layers": 1, "n_layers": 1, "n_out_1": "512", "out_channels_1": "8", "stride_1": 3, "weight_decay": "0.1"}, {}]
[[58, 0, 1], {"activation": "tanh", "batch_norm_1": "False", "batch_size": "512", "dropout_1": "False", "dropout_rate": "0.3", "kernel_size_1": "7", "learning_rate": 0.0053745815662579275, "maxpool_1": "True", "model_optimizer": "sgd", "n_conv_layers": 3, "n_layers": 1, "n_out_1": "256", "out_channels_1": "16", "stride_1": 3, "weight_decay": "0.01", "batch_norm_2": "False", "batch_norm_3": "False", "dropout_2": "False", "dropout_3": "True", "kernel_size_2": "7", "kernel_size_3": "3", "maxpool_2": "False", "maxpool_3": "False", "maxpool_kernel_size_1": "2", "maxpool_stride_1": 3, "momentum": 0.22910110373936676, "out_channels_2": "32", "out_channels_3": "32", "stride_2": 3, "stride_3": 3}, {}]
[[59, 0, 0], {"activation": "tanh", "batch_norm_1": "True", "batch_size": "512", "dropout_1": "True", "dropout_rate": "0.2", "kernel_size_1": "5", "learning_rate": 0.004259418897067434, "maxpool_1": "True", "model_optimizer": "adad", "n_conv_layers": 2, "n_layers": 1, "n_out_1": "256", "out_channels_1": "16", "stride_1": 3, "weight_decay": "0.01", "batch_norm_2": "True", "dropout_2": "False", "kernel_size_2": "3", "maxpool_2": "False", "maxpool_kernel_size_1": "4", "maxpool_stride_1": 2, "out_channels_2": "32", "stride_2": 2}, {}]
[[59, 0, 1], {"activation": "tanh", "batch_norm_1": "True", "batch_size": "64", "dropout_1": "True", "dropout_rate": "0.3", "kernel_size_1": "7", "learning_rate": 0.08820725646626182, "maxpool_1": "True", "model_optimizer": "adam", "n_conv_layers": 2, "n_layers": 2, "n_out_1": "64", "out_channels_1": "4", "stride_1": 3, "weight_decay": "0.1", "amsgrad": "False", "batch_norm_2": "True", "dropout_2": "True", "kernel_size_2": "5", "maxpool_2": "False", "maxpool_kernel_size_1": "3", "maxpool_stride_1": 3, "n_out_2": "128", "out_channels_2": "32", "stride_2": 2}, {}]
[[60, 0, 0], {"activation": "tanh", "batch_norm_1": "False", "batch_size": "512", "dropout_1": "True", "dropout_rate": "0.3", "kernel_size_1": "5", "learning_rate": 0.0003084839360232574, "maxpool_1": "True", "model_optimizer": "adad", "n_conv_layers": 2, "n_layers": 1, "n_out_1": "64", "out_channels_1": "16", "stride_1": 2, "weight_decay": "0.01", "batch_norm_2": "False", "dropout_2": "True", "kernel_size_2": "3", "maxpool_2": "False", "maxpool_kernel_size_1": "3", "maxpool_stride_1": 3, "out_channels_2": "32", "stride_2": 3}, {}]
[[60, 0, 1], {"activation": "tanh", "batch_norm_1": "False", "batch_size": "128", "dropout_1": "True", "dropout_rate": "0.1", "kernel_size_1": "5", "learning_rate": 0.0050375412665258, "maxpool_1": "True", "model_optimizer": "adam", "n_conv_layers": 1, "n_layers": 1, "n_out_1": "128", "out_channels_1": "8", "stride_1": 2, "weight_decay": "0.01", "amsgrad": "False", "maxpool_kernel_size_1": "2", "maxpool_stride_1": 2}, {}]
[[61, 0, 0], {"activation": "relu", "batch_norm_1": "True", "batch_size": "256", "dropout_1": "False", "dropout_rate": "0.3", "kernel_size_1": "3", "learning_rate": 0.003538957768016054, "maxpool_1": "False", "model_optimizer": "adam", "n_conv_layers": 2, "n_layers": 1, "n_out_1": "512", "out_channels_1": "16", "stride_1": 2, "weight_decay": "0.01", "amsgrad": "False", "batch_norm_2": "False", "dropout_2": "True", "kernel_size_2": "2", "maxpool_2": "True", "out_channels_2": "32", "stride_2": 2, "maxpool_kernel_size_2": "3", "maxpool_stride_2": 1}, {}]
[[61, 0, 1], {"activation": "sigmoid", "batch_norm_1": "True", "batch_size": "256", "dropout_1": "False", "dropout_rate": "0.2", "kernel_size_1": "7", "learning_rate": 0.05671668627510003, "maxpool_1": "False", "model_optimizer": "adad", "n_conv_layers": 2, "n_layers": 2, "n_out_1": "128", "out_channels_1": "4", "stride_1": 2, "weight_decay": "0.0", "batch_norm_2": "True", "dropout_2": "True", "kernel_size_2": "2", "maxpool_2": "True", "n_out_2": "64", "out_channels_2": "32", "stride_2": 1, "maxpool_kernel_size_2": "6", "maxpool_stride_2": 1}, {}]
[[62, 0, 0], {"activation": "sigmoid", "batch_norm_1": "True", "batch_size": "32", "dropout_1": "True", "dropout_rate": "0.1", "kernel_size_1": "7", "learning_rate": 0.0252027248868618, "maxpool_1": "False", "model_optimizer": "adam", "n_conv_layers": 2, "n_layers": 1, "n_out_1": "64", "out_channels_1": "4", "stride_1": 3, "weight_decay": "0.1", "amsgrad": "False", "batch_norm_2": "True", "dropout_2": "True", "kernel_size_2": "2", "maxpool_2": "False", "out_channels_2": "16", "stride_2": 1}, {}]
[[62, 0, 1], {"activation": "tanh", "batch_norm_1": "False", "batch_size": "512", "dropout_1": "False", "dropout_rate": "0.2", "kernel_size_1": "7", "learning_rate": 0.00013015193528521926, "maxpool_1": "False", "model_optimizer": "sgd", "n_conv_layers": 2, "n_layers": 1, "n_out_1": "128", "out_channels_1": "16", "stride_1": 3, "weight_decay": "0.1", "batch_norm_2": "False", "dropout_2": "False", "kernel_size_2": "2", "maxpool_2": "True", "momentum": 0.3242605426958536, "out_channels_2": "32", "stride_2": 1, "maxpool_kernel_size_2": "4", "maxpool_stride_2": 1}, {}]
[[63, 0, 0], {"activation": "relu", "batch_norm_1": "False", "batch_size": "256", "dropout_1": "False", "dropout_rate": "0.3", "kernel_size_1": "7", "learning_rate": 0.00013697412289611735, "maxpool_1": "False", "model_optimizer": "adam", "n_conv_layers": 1, "n_layers": 1, "n_out_1": "128", "out_channels_1": "4", "stride_1": 2, "weight_decay": "0.1", "amsgrad": "False"}, {}]
[[63, 0, 1], {"activation": "sigmoid", "batch_norm_1": "True", "batch_size": "128", "dropout_1": "True", "dropout_rate": "0.1", "kernel_size_1": "7", "learning_rate": 0.02412604763885398, "maxpool_1": "True", "model_optimizer": "sgd", "n_conv_layers": 3, "n_layers": 1, "n_out_1": "64", "out_channels_1": "8", "stride_1": 3, "weight_decay": "0.0", "batch_norm_2": "False", "batch_norm_3": "False", "dropout_2": "True", "dropout_3": "False", "kernel_size_2": "2", "kernel_size_3": "3", "maxpool_2": "True", "maxpool_3": "False", "maxpool_kernel_size_1": "5", "maxpool_stride_1": 3, "momentum": 0.7104646418505813, "out_channels_2": "32", "out_channels_3": "8", "stride_2": 2, "stride_3": 3, "maxpool_kernel_size_2": "2", "maxpool_stride_2": 1}, {}]
[[64, 0, 0], {"activation": "tanh", "batch_norm_1": "True", "batch_size": "64", "dropout_1": "False", "dropout_rate": "0.1", "kernel_size_1": "3", "learning_rate": 0.012815373427317216, "maxpool_1": "True", "model_optimizer": "sgd", "n_conv_layers": 2, "n_layers": 1, "n_out_1": "256", "out_channels_1": "16", "stride_1": 3, "weight_decay": "0.1", "batch_norm_2": "False", "dropout_2": "True", "kernel_size_2": "2", "maxpool_2": "False", "maxpool_kernel_size_1": "3", "maxpool_stride_1": 3, "momentum": 0.1785625072346754, "out_channels_2": "16", "stride_2": 2}, {}]
[[64, 0, 1], {"activation": "relu", "batch_norm_1": "False", "batch_size": "64", "dropout_1": "True", "dropout_rate": "0.3", "kernel_size_1": "5", "learning_rate": 0.08709799327004622, "maxpool_1": "False", "model_optimizer": "adad", "n_conv_layers": 1, "n_layers": 1, "n_out_1": "128", "out_channels_1": "4", "stride_1": 1, "weight_decay": "0.1"}, {}]
[[65, 0, 0], {"activation": "tanh", "batch_norm_1": "True", "batch_size": "64", "dropout_1": "False", "dropout_rate": "0.1", "kernel_size_1": "5", "learning_rate": 0.0033328021681072115, "maxpool_1": "True", "model_optimizer": "sgd", "n_conv_layers": 3, "n_layers": 2, "n_out_1": "64", "out_channels_1": "8", "stride_1": 2, "weight_decay": "0.01", "batch_norm_2": "False", "batch_norm_3": "True", "dropout_2": "True", "dropout_3": "True", "kernel_size_2": "7", "kernel_size_3": "5", "maxpool_2": "True", "maxpool_3": "False", "maxpool_kernel_size_1": "4", "maxpool_stride_1": 1, "momentum": 0.37460889452345475, "n_out_2": "64", "out_channels_2": "32", "out_channels_3": "32", "stride_2": 1, "stride_3": 1, "maxpool_kernel_size_2": "2", "maxpool_stride_2": 1}, {}]
[[65, 0, 1], {"activation": "relu", "batch_norm_1": "False", "batch_size": "256", "dropout_1": "False", "dropout_rate": "0.2", "kernel_size_1": "7", "learning_rate": 0.056515844653571276, "maxpool_1": "False", "model_optimizer": "adam", "n_conv_layers": 2, "n_layers": 2, "n_out_1": "512", "out_channels_1": "4", "stride_1": 1, "weight_decay": "0.1", "amsgrad": "True", "batch_norm_2": "True", "dropout_2": "True", "kernel_size_2": "3", "maxpool_2": "True", "n_out_2": "64", "out_channels_2": "8", "stride_2": 2, "maxpool_kernel_size_2": "2", "maxpool_stride_2": 2}, {}]
[[66, 0, 0], {"activation": "relu", "batch_norm_1": "False", "batch_size": "128", "dropout_1": "False", "dropout_rate": "0.2", "kernel_size_1": "3", "learning_rate": 0.011388649323555973, "maxpool_1": "False", "model_optimizer": "sgd", "n_conv_layers": 1, "n_layers": 1, "n_out_1": "256", "out_channels_1": "8", "stride_1": 3, "weight_decay": "0.1", "momentum": 0.11406845284323132}, {}]
[[66, 0, 1], {"activation": "relu", "batch_norm_1": "False", "batch_size": "64", "dropout_1": "True", "dropout_rate": "0.2", "kernel_size_1": "7", "learning_rate": 0.00013157481115654663, "maxpool_1": "True", "model_optimizer": "sgd", "n_conv_layers": 1, "n_layers": 1, "n_out_1": "64", "out_channels_1": "4", "stride_1": 3, "weight_decay": "0.01", "maxpool_kernel_size_1": "2", "maxpool_stride_1": 2, "momentum": 0.0764552741859709}, {}]
[[67, 0, 0], {"activation": "tanh", "batch_norm_1": "False", "batch_size": "32", "dropout_1": "True", "dropout_rate": "0.2", "kernel_size_1": "5", "learning_rate": 0.014330380160203902, "maxpool_1": "True", "model_optimizer": "adad", "n_conv_layers": 1, "n_layers": 1, "n_out_1": "256", "out_channels_1": "4", "stride_1": 3, "weight_decay": "0.0", "maxpool_kernel_size_1": "3", "maxpool_stride_1": 2}, {}]
[[67, 0, 1], {"activation": "relu", "batch_norm_1": "False", "batch_size": "32", "dropout_1": "True", "dropout_rate": "0.3", "kernel_size_1": "5", "learning_rate": 0.00020799269167851703, "maxpool_1": "False", "model_optimizer": "adam", "n_conv_layers": 1, "n_layers": 1, "n_out_1": "64", "out_channels_1": "16", "stride_1": 3, "weight_decay": "0.0", "amsgrad": "True"}, {}]
[[68, 0, 0], {"activation": "tanh", "batch_norm_1": "True", "batch_size": "64", "dropout_1": "True", "dropout_rate": "0.3", "kernel_size_1": "5", "learning_rate": 0.01647129940647559, "maxpool_1": "True", "model_optimizer": "sgd", "n_conv_layers": 2, "n_layers": 2, "n_out_1": "64", "out_channels_1": "8", "stride_1": 2, "weight_decay": "0.01", "batch_norm_2": "False", "dropout_2": "False", "kernel_size_2": "3", "maxpool_2": "True", "maxpool_kernel_size_1": "5", "maxpool_stride_1": 3, "momentum": 0.40274932016719, "n_out_2": "64", "out_channels_2": "8", "stride_2": 3, "maxpool_kernel_size_2": "3", "maxpool_stride_2": 2}, {}]
[[68, 0, 1], {"activation": "relu", "batch_norm_1": "False", "batch_size": "64", "dropout_1": "True", "dropout_rate": "0.2", "kernel_size_1": "3", "learning_rate": 0.022108511480195724, "maxpool_1": "False", "model_optimizer": "sgd", "n_conv_layers": 1, "n_layers": 1, "n_out_1": "128", "out_channels_1": "8", "stride_1": 2, "weight_decay": "0.0", "momentum": 0.7586203191643603}, {}]
[[69, 0, 0], {"activation": "sigmoid", "batch_norm_1": "False", "batch_size": "256", "dropout_1": "False", "dropout_rate": "0.2", "kernel_size_1": "7", "learning_rate": 0.0009328987536240653, "maxpool_1": "True", "model_optimizer": "adam", "n_conv_layers": 2, "n_layers": 1, "n_out_1": "128", "out_channels_1": "8", "stride_1": 1, "weight_decay": "0.1", "amsgrad": "False", "batch_norm_2": "True", "dropout_2": "False", "kernel_size_2": "2", "maxpool_2": "False", "maxpool_kernel_size_1": "3", "maxpool_stride_1": 2, "out_channels_2": "32", "stride_2": 1}, {}]
[[69, 0, 1], {"activation": "sigmoid", "batch_norm_1": "False", "batch_size": "128", "dropout_1": "True", "dropout_rate": "0.2", "kernel_size_1": "3", "learning_rate": 0.003271548403437964, "maxpool_1": "False", "model_optimizer": "adad", "n_conv_layers": 2, "n_layers": 1, "n_out_1": "32", "out_channels_1": "8", "stride_1": 1, "weight_decay": "0.1", "batch_norm_2": "False", "dropout_2": "False", "kernel_size_2": "2", "maxpool_2": "True", "out_channels_2": "32", "stride_2": 3, "maxpool_kernel_size_2": "3", "maxpool_stride_2": 2}, {}]
[[70, 0, 0], {"activation": "relu", "batch_norm_1": "False", "batch_size": "64", "dropout_1": "True", "dropout_rate": "0.3", "kernel_size_1": "5", "learning_rate": 0.0011942145705372668, "maxpool_1": "True", "model_optimizer": "sgd", "n_conv_layers": 1, "n_layers": 1, "n_out_1": "128", "out_channels_1": "16", "stride_1": 1, "weight_decay": "0.1", "maxpool_kernel_size_1": "6", "maxpool_stride_1": 1, "momentum": 0.870254089187652}, {}]
[[70, 0, 1], {"activation": "sigmoid", "batch_norm_1": "False", "batch_size": "128", "dropout_1": "False", "dropout_rate": "0.1", "kernel_size_1": "3", "learning_rate": 0.002530340319634871, "maxpool_1": "False", "model_optimizer": "sgd", "n_conv_layers": 1, "n_layers": 1, "n_out_1": "512", "out_channels_1": "16", "stride_1": 2, "weight_decay": "0.01", "momentum": 0.16053816063507456}, {}]
[[71, 0, 0], {"activation": "relu", "batch_norm_1": "False", "batch_size": "128", "dropout_1": "False", "dropout_rate": "0.3", "kernel_size_1": "7", "learning_rate": 0.00022299663224403264, "maxpool_1": "False", "model_optimizer": "adam", "n_conv_layers": 1, "n_layers": 1, "n_out_1": "512", "out_channels_1": "8", "stride_1": 2, "weight_decay": "0.1", "amsgrad": "True"}, {}]
[[71, 0, 1], {"activation": "sigmoid", "batch_norm_1": "False", "batch_size": "64", "dropout_1": "False", "dropout_rate": "0.3", "kernel_size_1": "7", "learning_rate": 0.0004546752501341157, "maxpool_1": "False", "model_optimizer": "sgd", "n_conv_layers": 2, "n_layers": 2, "n_out_1": "64", "out_channels_1": "4", "stride_1": 2, "weight_decay": "0.0", "batch_norm_2": "True", "dropout_2": "False", "kernel_size_2": "3", "maxpool_2": "False", "momentum": 0.2710974078974442, "n_out_2": "64", "out_channels_2": "32", "stride_2": 3}, {}]
[[72, 0, 0], {"activation": "relu", "batch_norm_1": "True", "batch_size": "128", "dropout_1": "True", "dropout_rate": "0.3", "kernel_size_1": "3", "learning_rate": 0.036272937110927425, "maxpool_1": "True", "model_optimizer": "adad", "n_conv_layers": 3, "n_layers": 1, "n_out_1": "32", "out_channels_1": "16", "stride_1": 3, "weight_decay": "0.1", "batch_norm_2": "False", "batch_norm_3": "True", "dropout_2": "False", "dropout_3": "True", "kernel_size_2": "3", "kernel_size_3": "5", "maxpool_2": "True", "maxpool_3": "False", "maxpool_kernel_size_1": "4", "maxpool_stride_1": 1, "out_channels_2": "8", "out_channels_3": "8", "stride_2": 1, "stride_3": 2, "maxpool_kernel_size_2": "3", "maxpool_stride_2": 1}, {}]
[[72, 0, 1], {"activation": "sigmoid", "batch_norm_1": "True", "batch_size": "32", "dropout_1": "False", "dropout_rate": "0.2", "kernel_size_1": "3", "learning_rate": 0.0009605511135483509, "maxpool_1": "False", "model_optimizer": "sgd", "n_conv_layers": 1, "n_layers": 1, "n_out_1": "128", "out_channels_1": "16", "stride_1": 3, "weight_decay": "0.0", "momentum": 0.7448716217803277}, {}]
[[73, 0, 0], {"activation": "tanh", "batch_norm_1": "True", "batch_size": "128", "dropout_1": "False", "dropout_rate": "0.2", "kernel_size_1": "3", "learning_rate": 0.08549063565704487, "maxpool_1": "False", "model_optimizer": "adam", "n_conv_layers": 3, "n_layers": 1, "n_out_1": "512", "out_channels_1": "16", "stride_1": 1, "weight_decay": "0.1", "amsgrad": "False", "batch_norm_2": "True", "batch_norm_3": "True", "dropout_2": "False", "dropout_3": "False", "kernel_size_2": "7", "kernel_size_3": "3", "maxpool_2": "True", "maxpool_3": "False", "out_channels_2": "16", "out_channels_3": "32", "stride_2": 2, "stride_3": 1, "maxpool_kernel_size_2": "3", "maxpool_stride_2": 1}, {}]
[[73, 0, 1], {"activation": "tanh", "batch_norm_1": "False", "batch_size": "256", "dropout_1": "True", "dropout_rate": "0.3", "kernel_size_1": "5", "learning_rate": 0.00023828767909242295, "maxpool_1": "False", "model_optimizer": "sgd", "n_conv_layers": 1, "n_layers": 1, "n_out_1": "512", "out_channels_1": "4", "stride_1": 3, "weight_decay": "0.1", "momentum": 0.06579452437173573}, {}]
[[74, 0, 0], {"activation": "sigmoid", "batch_norm_1": "True", "batch_size": "512", "dropout_1": "False", "dropout_rate": "0.1", "kernel_size_1": "3", "learning_rate": 0.07348377672902434, "maxpool_1": "True", "model_optimizer": "adad", "n_conv_layers": 1, "n_layers": 1, "n_out_1": "32", "out_channels_1": "8", "stride_1": 2, "weight_decay": "0.01", "maxpool_kernel_size_1": "4", "maxpool_stride_1": 2}, {}]
[[74, 0, 1], {"activation": "relu", "batch_norm_1": "False", "batch_size": "512", "dropout_1": "False", "dropout_rate": "0.2", "kernel_size_1": "5", "learning_rate": 0.09875313719654498, "maxpool_1": "False", "model_optimizer": "adam", "n_conv_layers": 2, "n_layers": 2, "n_out_1": "512", "out_channels_1": "16", "stride_1": 1, "weight_decay": "0.1", "amsgrad": "False", "batch_norm_2": "False", "dropout_2": "False", "kernel_size_2": "2", "maxpool_2": "True", "n_out_2": "256", "out_channels_2": "32", "stride_2": 3, "maxpool_kernel_size_2": "5", "maxpool_stride_2": 1}, {}]
[[75, 0, 0], {"activation": "sigmoid", "batch_norm_1": "False", "batch_size": "128", "dropout_1": "False", "dropout_rate": "0.2", "kernel_size_1": "7", "learning_rate": 0.057135097738812965, "maxpool_1": "True", "model_optimizer": "adam", "n_conv_layers": 1, "n_layers": 1, "n_out_1": "64", "out_channels_1": "8", "stride_1": 3, "weight_decay": "0.0", "amsgrad": "False", "maxpool_kernel_size_1": "5", "maxpool_stride_1": 3}, {}]
[[75, 0, 1], {"activation": "tanh", "batch_norm_1": "False", "batch_size": "256", "dropout_1": "False", "dropout_rate": "0.3", "kernel_size_1": "7", "learning_rate": 0.0021386322151797843, "maxpool_1": "False", "model_optimizer": "sgd", "n_conv_layers": 3, "n_layers": 2, "n_out_1": "512", "out_channels_1": "16", "stride_1": 3, "weight_decay": "0.0", "batch_norm_2": "True", "batch_norm_3": "False", "dropout_2": "True", "dropout_3": "True", "kernel_size_2": "7", "kernel_size_3": "3", "maxpool_2": "True", "maxpool_3": "False", "momentum": 0.9506838942028852, "n_out_2": "128", "out_channels_2": "32", "out_channels_3": "16", "stride_2": 1, "stride_3": 2, "maxpool_kernel_size_2": "3", "maxpool_stride_2": 1}, {}]
[[76, 0, 0], {"activation": "sigmoid", "batch_norm_1": "False", "batch_size": "128", "dropout_1": "False", "dropout_rate": "0.1", "kernel_size_1": "5", "learning_rate": 0.02200378889842883, "maxpool_1": "True", "model_optimizer": "adam", "n_conv_layers": 1, "n_layers": 2, "n_out_1": "64", "out_channels_1": "4", "stride_1": 1, "weight_decay": "0.1", "amsgrad": "True", "maxpool_kernel_size_1": "2", "maxpool_stride_1": 1, "n_out_2": "128"}, {}]
[[76, 0, 1], {"activation": "sigmoid", "batch_norm_1": "True", "batch_size": "64", "dropout_1": "False", "dropout_rate": "0.1", "kernel_size_1": "7", "learning_rate": 0.025536594636431483, "maxpool_1": "True", "model_optimizer": "adam", "n_conv_layers": 1, "n_layers": 1, "n_out_1": "64", "out_channels_1": "4", "stride_1": 3, "weight_decay": "0.1", "amsgrad": "True", "maxpool_kernel_size_1": "4", "maxpool_stride_1": 1}, {}]
[[77, 0, 0], {"activation": "sigmoid", "batch_norm_1": "True", "batch_size": "512", "dropout_1": "False", "dropout_rate": "0.3", "kernel_size_1": "5", "learning_rate": 0.005411995409178726, "maxpool_1": "False", "model_optimizer": "sgd", "n_conv_layers": 1, "n_layers": 1, "n_out_1": "64", "out_channels_1": "16", "stride_1": 1, "weight_decay": "0.1", "momentum": 0.49925226495728686}, {}]
[[77, 0, 1], {"activation": "tanh", "batch_norm_1": "False", "batch_size": "32", "dropout_1": "True", "dropout_rate": "0.2", "kernel_size_1": "5", "learning_rate": 0.00062925021112493, "maxpool_1": "False", "model_optimizer": "adad", "n_conv_layers": 3, "n_layers": 1, "n_out_1": "128", "out_channels_1": "4", "stride_1": 2, "weight_decay": "0.1", "batch_norm_2": "False", "batch_norm_3": "True", "dropout_2": "True", "dropout_3": "True", "kernel_size_2": "2", "kernel_size_3": "3", "maxpool_2": "False", "maxpool_3": "False", "out_channels_2": "16", "out_channels_3": "8", "stride_2": 2, "stride_3": 1}, {}]
[[78, 0, 0], {"activation": "sigmoid", "batch_norm_1": "True", "batch_size": "128", "dropout_1": "True", "dropout_rate": "0.2", "kernel_size_1": "3", "learning_rate": 0.00313283212765601, "maxpool_1": "False", "model_optimizer": "adad", "n_conv_layers": 3, "n_layers": 2, "n_out_1": "64", "out_channels_1": "16", "stride_1": 1, "weight_decay": "0.01", "batch_norm_2": "False", "batch_norm_3": "True", "dropout_2": "True", "dropout_3": "False", "kernel_size_2": "3", "kernel_size_3": "1", "maxpool_2": "False", "maxpool_3": "False", "n_out_2": "512", "out_channels_2": "8", "out_channels_3": "8", "stride_2": 2, "stride_3": 2}, {}]
[[78, 0, 1], {"activation": "tanh", "batch_norm_1": "True", "batch_size": "512", "dropout_1": "True", "dropout_rate": "0.3", "kernel_size_1": "3", "learning_rate": 0.02511647135525235, "maxpool_1": "False", "model_optimizer": "sgd", "n_conv_layers": 2, "n_layers": 1, "n_out_1": "128", "out_channels_1": "8", "stride_1": 2, "weight_decay": "0.0", "batch_norm_2": "False", "dropout_2": "False", "kernel_size_2": "2", "maxpool_2": "False", "momentum": 0.17759300509921497, "out_channels_2": "8", "stride_2": 3}, {}]
[[79, 0, 0], {"activation": "relu", "batch_norm_1": "False", "batch_size": "256", "dropout_1": "True", "dropout_rate": "0.2", "kernel_size_1": "3", "learning_rate": 0.007683437798167299, "maxpool_1": "False", "model_optimizer": "adad", "n_conv_layers": 2, "n_layers": 1, "n_out_1": "512", "out_channels_1": "8", "stride_1": 1, "weight_decay": "0.0", "batch_norm_2": "False", "dropout_2": "False", "kernel_size_2": "2", "maxpool_2": "False", "out_channels_2": "16", "stride_2": 1}, {}]
[[79, 0, 1], {"activation": "relu", "batch_norm_1": "True", "batch_size": "256", "dropout_1": "True", "dropout_rate": "0.2", "kernel_size_1": "5", "learning_rate": 0.00013723599493616206, "maxpool_1": "True", "model_optimizer": "adam", "n_conv_layers": 2, "n_layers": 1, "n_out_1": "64", "out_channels_1": "16", "stride_1": 2, "weight_decay": "0.0", "amsgrad": "False", "batch_norm_2": "True", "dropout_2": "False", "kernel_size_2": "3", "maxpool_2": "False", "maxpool_kernel_size_1": "3", "maxpool_stride_1": 3, "out_channels_2": "32", "stride_2": 1}, {}]
[[80, 0, 0], {"activation": "relu", "batch_norm_1": "True", "batch_size": "32", "dropout_1": "True", "dropout_rate": "0.2", "kernel_size_1": "7", "learning_rate": 0.006203258783691444, "maxpool_1": "True", "model_optimizer": "adam", "n_conv_layers": 2, "n_layers": 2, "n_out_1": "256", "out_channels_1": "8", "stride_1": 3, "weight_decay": "0.01", "amsgrad": "True", "batch_norm_2": "True", "dropout_2": "False", "kernel_size_2": "3", "maxpool_2": "False", "maxpool_kernel_size_1": "6", "maxpool_stride_1": 2, "n_out_2": "128", "out_channels_2": "32", "stride_2": 1}, {}]
[[80, 0, 1], {"activation": "tanh", "batch_norm_1": "False", "batch_size": "512", "dropout_1": "True", "dropout_rate": "0.1", "kernel_size_1": "7", "learning_rate": 0.00024545538419880504, "maxpool_1": "True", "model_optimizer": "adam", "n_conv_layers": 2, "n_layers": 1, "n_out_1": "64", "out_channels_1": "16", "stride_1": 1, "weight_decay": "0.0", "amsgrad": "False", "batch_norm_2": "False", "dropout_2": "False", "kernel_size_2": "2", "maxpool_2": "True", "maxpool_kernel_size_1": "2", "maxpool_stride_1": 3, "out_channels_2": "8", "stride_2": 3, "maxpool_kernel_size_2": "5", "maxpool_stride_2": 3}, {}]
[[81, 0, 0], {"activation": "relu", "batch_norm_1": "True", "batch_size": "256", "dropout_1": "True", "dropout_rate": "0.3", "kernel_size_1": "5", "learning_rate": 0.00021618395298282994, "maxpool_1": "False", "model_optimizer": "adad", "n_conv_layers": 1, "n_layers": 2, "n_out_1": "64", "out_channels_1": "4", "stride_1": 2, "weight_decay": "0.0", "n_out_2": "256"}, {}]
[[81, 0, 1], {"activation": "tanh", "batch_norm_1": "True", "batch_size": "128", "dropout_1": "True", "dropout_rate": "0.1", "kernel_size_1": "3", "learning_rate": 0.0033340862189725267, "maxpool_1": "True", "model_optimizer": "adam", "n_conv_layers": 2, "n_layers": 2, "n_out_1": "64", "out_channels_1": "8", "stride_1": 2, "weight_decay": "0.1", "amsgrad": "True", "batch_norm_2": "False", "dropout_2": "False", "kernel_size_2": "2", "maxpool_2": "False", "maxpool_kernel_size_1": "3", "maxpool_stride_1": 3, "n_out_2": "64", "out_channels_2": "16", "stride_2": 1}, {}]
[[82, 0, 0], {"activation": "relu", "batch_norm_1": "False", "batch_size": "32", "dropout_1": "False", "dropout_rate": "0.3", "kernel_size_1": "3", "learning_rate": 0.013800061630370918, "maxpool_1": "False", "model_optimizer": "adad", "n_conv_layers": 1, "n_layers": 1, "n_out_1": "32", "out_channels_1": "4", "stride_1": 2, "weight_decay": "0.1"}, {}]
[[82, 0, 1], {"activation": "tanh", "batch_norm_1": "True", "batch_size": "32", "dropout_1": "True", "dropout_rate": "0.1", "kernel_size_1": "3", "learning_rate": 0.0016992836742416894, "maxpool_1": "True", "model_optimizer": "adad", "n_conv_layers": 3, "n_layers": 1, "n_out_1": "128", "out_channels_1": "4", "stride_1": 2, "weight_decay": "0.01", "batch_norm_2": "False", "batch_norm_3": "True", "dropout_2": "True", "dropout_3": "True", "kernel_size_2": "7", "kernel_size_3": "1", "maxpool_2": "True", "maxpool_3": "True", "maxpool_kernel_size_1": "4", "maxpool_stride_1": 3, "out_channels_2": "16", "out_channels_3": "16", "stride_2": 1, "stride_3": 3, "maxpool_kernel_size_2": "3", "maxpool_kernel_size_3": "3", "maxpool_stride_2": 2, "maxpool_stride_3": 1}, {}]
[[83, 0, 0], {"activation": "sigmoid", "batch_norm_1": "False", "batch_size": "256", "dropout_1": "True", "dropout_rate": "0.2", "kernel_size_1": "5", "learning_rate": 0.00017224528010905118, "maxpool_1": "True", "model_optimizer": "adad", "n_conv_layers": 1, "n_layers": 1, "n_out_1": "32", "out_channels_1": "4", "stride_1": 2, "weight_decay": "0.1", "maxpool_kernel_size_1": "5", "maxpool_stride_1": 1}, {}]
[[83, 0, 1], {"activation": "relu", "batch_norm_1": "False", "batch_size": "256", "dropout_1": "True", "dropout_rate": "0.3", "kernel_size_1": "3", "learning_rate": 0.00013230483963700088, "maxpool_1": "False", "model_optimizer": "adad", "n_conv_layers": 3, "n_layers": 1, "n_out_1": "256", "out_channels_1": "16", "stride_1": 3, "weight_decay": "0.0", "batch_norm_2": "False", "batch_norm_3": "False", "dropout_2": "True", "dropout_3": "False", "kernel_size_2": "2", "kernel_size_3": "5", "maxpool_2": "True", "maxpool_3": "False", "out_channels_2": "16", "out_channels_3": "64", "stride_2": 2, "stride_3": 1, "maxpool_kernel_size_2": "5", "maxpool_stride_2": 2}, {}]
[[84, 0, 0], {"activation": "sigmoid", "batch_norm_1": "False", "batch_size": "32", "dropout_1": "False", "dropout_rate": "0.1", "kernel_size_1": "7", "learning_rate": 0.06027689369422656, "maxpool_1": "False", "model_optimizer": "sgd", "n_conv_layers": 3, "n_layers": 1, "n_out_1": "128", "out_channels_1": "4", "stride_1": 3, "weight_decay": "0.01", "batch_norm_2": "True", "batch_norm_3": "True", "dropout_2": "False", "dropout_3": "False", "kernel_size_2": "5", "kernel_size_3": "1", "maxpool_2": "False", "maxpool_3": "False", "momentum": 0.2059247078376495, "out_channels_2": "32", "out_channels_3": "64", "stride_2": 3, "stride_3": 3}, {}]
[[84, 0, 1], {"activation": "tanh", "batch_norm_1": "True", "batch_size": "512", "dropout_1": "False", "dropout_rate": "0.3", "kernel_size_1": "5", "learning_rate": 0.0015068940333840292, "maxpool_1": "False", "model_optimizer": "adam", "n_conv_layers": 1, "n_layers": 1, "n_out_1": "32", "out_channels_1": "8", "stride_1": 2, "weight_decay": "0.0", "amsgrad": "False"}, {}]
[[85, 0, 0], {"activation": "sigmoid", "batch_norm_1": "True", "batch_size": "32", "dropout_1": "False", "dropout_rate": "0.2", "kernel_size_1": "5", "learning_rate": 0.00017585108829348915, "maxpool_1": "False", "model_optimizer": "adam", "n_conv_layers": 3, "n_layers": 2, "n_out_1": "512", "out_channels_1": "16", "stride_1": 1, "weight_decay": "0.01", "amsgrad": "True", "batch_norm_2": "False", "batch_norm_3": "True", "dropout_2": "True", "dropout_3": "True", "kernel_size_2": "2", "kernel_size_3": "3", "maxpool_2": "False", "maxpool_3": "False", "n_out_2": "64", "out_channels_2": "8", "out_channels_3": "8", "stride_2": 3, "stride_3": 3}, {}]
[[85, 0, 1], {"activation": "sigmoid", "batch_norm_1": "True", "batch_size": "512", "dropout_1": "True", "dropout_rate": "0.1", "kernel_size_1": "3", "learning_rate": 0.013217581974401963, "maxpool_1": "False", "model_optimizer": "adam", "n_conv_layers": 1, "n_layers": 1, "n_out_1": "64", "out_channels_1": "8", "stride_1": 3, "weight_decay": "0.01", "amsgrad": "False"}, {}]
[[86, 0, 0], {"activation": "relu", "batch_norm_1": "False", "batch_size": "512", "dropout_1": "True", "dropout_rate": "0.1", "kernel_size_1": "5", "learning_rate": 0.005140089841385892, "maxpool_1": "True", "model_optimizer": "adad", "n_conv_layers": 1, "n_layers": 2, "n_out_1": "64", "out_channels_1": "4", "stride_1": 1, "weight_decay": "0.01", "maxpool_kernel_size_1": "3", "maxpool_stride_1": 1, "n_out_2": "256"}, {}]
[[86, 0, 1], {"activation": "sigmoid", "batch_norm_1": "False", "batch_size": "32", "dropout_1": "True", "dropout_rate": "0.1", "kernel_size_1": "5", "learning_rate": 0.0009908191839633072, "maxpool_1": "True", "model_optimizer": "sgd", "n_conv_layers": 1, "n_layers": 2, "n_out_1": "512", "out_channels_1": "8", "stride_1": 3, "weight_decay": "0.01", "maxpool_kernel_size_1": "4", "maxpool_stride_1": 1, "momentum": 0.6542071940225651, "n_out_2": "128"}, {}]
[[87, 0, 0], {"activation": "tanh", "batch_norm_1": "False", "batch_size": "64", "dropout_1": "True", "dropout_rate": "0.1", "kernel_size_1": "7", "learning_rate": 0.049345126892092875, "maxpool_1": "False", "model_optimizer": "sgd", "n_conv_layers": 2, "n_layers": 1, "n_out_1": "512", "out_channels_1": "8", "stride_1": 3, "weight_decay": "0.01", "batch_norm_2": "False", "dropout_2": "False", "kernel_size_2": "5", "maxpool_2": "False", "momentum": 0.6306134132782679, "out_channels_2": "8", "stride_2": 3}, {}]
[[87, 0, 1], {"activation": "tanh", "batch_norm_1": "True", "batch_size": "256", "dropout_1": "False", "dropout_rate": "0.2", "kernel_size_1": "3", "learning_rate": 0.015003961210471324, "maxpool_1": "False", "model_optimizer": "adam", "n_conv_layers": 1, "n_layers": 1, "n_out_1": "128", "out_channels_1": "4", "stride_1": 1, "weight_decay": "0.1", "amsgrad": "False"}, {}]
[[88, 0, 0], {"activation": "relu", "batch_norm_1": "False", "batch_size": "256", "dropout_1": "False", "dropout_rate": "0.3", "kernel_size_1": "5", "learning_rate": 0.019830757455069303, "maxpool_1": "True", "model_optimizer": "sgd", "n_conv_layers": 2, "n_layers": 3, "n_out_1": "256", "out_channels_1": "8", "stride_1": 3, "weight_decay": "0.01", "batch_norm_2": "False", "dropout_2": "False", "kernel_size_2": "2", "maxpool_2": "True", "maxpool_kernel_size_1": "2", "maxpool_stride_1": 1, "momentum": 0.02380728418782898, "n_out_2": "128", "n_out_3": "64", "out_channels_2": "32", "stride_2": 3, "maxpool_kernel_size_2": "6", "maxpool_stride_2": 1}, {}]
[[88, 0, 1], {"activation": "relu", "batch_norm_1": "True", "batch_size": "512", "dropout_1": "True", "dropout_rate": "0.2", "kernel_size_1": "7", "learning_rate": 0.056799844460199415, "maxpool_1": "True", "model_optimizer": "adad", "n_conv_layers": 1, "n_layers": 1, "n_out_1": "256", "out_channels_1": "16", "stride_1": 1, "weight_decay": "0.0", "maxpool_kernel_size_1": "3", "maxpool_stride_1": 1}, {}]
[[89, 0, 0], {"activation": "relu", "batch_norm_1": "False", "batch_size": "64", "dropout_1": "True", "dropout_rate": "0.2", "kernel_size_1": "5", "learning_rate": 0.055563802311445115, "maxpool_1": "True", "model_optimizer": "adad", "n_conv_layers": 2, "n_layers": 1, "n_out_1": "256", "out_channels_1": "4", "stride_1": 2, "weight_decay": "0.01", "batch_norm_2": "True", "dropout_2": "True", "kernel_size_2": "2", "maxpool_2": "True", "maxpool_kernel_size_1": "4", "maxpool_stride_1": 2, "out_channels_2": "16", "stride_2": 1, "maxpool_kernel_size_2": "3", "maxpool_stride_2": 3}, {}]
[[89, 0, 1], {"activation": "sigmoid", "batch_norm_1": "True", "batch_size": "64", "dropout_1": "True", "dropout_rate": "0.3", "kernel_size_1": "7", "learning_rate": 0.01277330439390475, "maxpool_1": "False", "model_optimizer": "adam", "n_conv_layers": 1, "n_layers": 1, "n_out_1": "512", "out_channels_1": "8", "stride_1": 3, "weight_decay": "0.01", "amsgrad": "False"}, {}]
