Workingdir: /home/janowski/automl_ss19_project_maciek/src/cnn_darts
Started at Fri Sep 20 15:51:47 CEST 2019
Running job combin using 2 cpus per node with given JID 3654121 on queue meta_gpu-black
09/20 03:51:50 PM gpu device = 0
48 48 16
48 64 32
64 128 64
09/20 03:51:51 PM param size = 0.099217MB
09/20 03:51:52 PM epoch 0 lr 5.090717e-03
09/20 03:51:53 PM train 000 3.883470e+00 1.953125 13.281250
09/20 03:52:03 PM train 050 1.951150e+00 50.536152 75.972733
09/20 03:52:13 PM train 100 1.385301e+00 64.391244 85.086634
09/20 03:52:24 PM train 150 1.112435e+00 71.230857 88.966784
09/20 03:52:35 PM train 200 9.494280e-01 75.217662 91.126399
09/20 03:52:46 PM train 250 8.364248e-01 78.031624 92.531437
09/20 03:52:58 PM train 300 7.537141e-01 80.185839 93.500831
09/20 03:53:09 PM train 350 6.880605e-01 81.843171 94.256366
09/20 03:53:20 PM train 400 6.364458e-01 83.183642 94.834204
09/20 03:53:32 PM train 450 5.953798e-01 84.245947 95.296044
09/20 03:53:43 PM train 500 5.606726e-01 85.091536 95.679734
09/20 03:53:55 PM train 550 5.323838e-01 85.790750 95.981029
09/20 03:54:06 PM train 600 5.066447e-01 86.438618 96.249740
09/20 03:54:14 PM train_acc 86.838400
09/20 03:54:14 PM valid 000 3.716103e-01 90.234375 98.828125
09/20 03:54:17 PM valid 050 2.860592e-01 91.750919 98.820466
09/20 03:54:20 PM valid 100 2.946796e-01 91.618967 98.828125
09/20 03:54:24 PM valid 150 2.952052e-01 91.530422 98.838473
09/20 03:54:27 PM valid 200 2.911176e-01 91.635572 98.851446
09/20 03:54:30 PM valid 250 2.929747e-01 91.575884 98.857694
09/20 03:54:31 PM valid_acc 91.643954
09/20 03:54:31 PM epoch 1 lr 4.935189e-03
09/20 03:54:31 PM train 000 2.806455e-01 91.796875 99.218750
09/20 03:54:43 PM train 050 2.545189e-01 92.807904 99.103860
09/20 03:54:55 PM train 100 2.476346e-01 93.077042 99.064047
09/20 03:55:07 PM train 150 2.434137e-01 93.160182 99.084230
09/20 03:55:18 PM train 200 2.371520e-01 93.349658 99.102146
09/20 03:55:30 PM train 250 2.325655e-01 93.454308 99.117592
09/20 03:55:42 PM train 300 2.305664e-01 93.508617 99.127907
09/20 03:55:54 PM train 350 2.267316e-01 93.644275 99.133057
09/20 03:56:06 PM train 400 2.235108e-01 93.724673 99.152509
09/20 03:56:17 PM train 450 2.221777e-01 93.744803 99.150326
09/20 03:56:29 PM train 500 2.188744e-01 93.824071 99.164172
09/20 03:56:40 PM train 550 2.149259e-01 93.937160 99.183303
09/20 03:56:52 PM train 600 2.126612e-01 93.995684 99.198601
09/20 03:57:00 PM train_acc 94.057975
09/20 03:57:00 PM valid 000 1.874058e-01 94.531250 99.218750
09/20 03:57:03 PM valid 050 2.252968e-01 93.390012 99.310662
09/20 03:57:06 PM valid 100 2.211171e-01 93.603032 99.280631
09/20 03:57:09 PM valid 150 2.251353e-01 93.592198 99.198055
09/20 03:57:12 PM valid 200 2.272184e-01 93.540112 99.197373
09/20 03:57:14 PM valid 250 2.286598e-01 93.472983 99.189181
09/20 03:57:16 PM valid_acc 93.457180
09/20 03:57:16 PM epoch 2 lr 4.723116e-03
09/20 03:57:16 PM train 000 1.873237e-01 94.531250 99.609375
09/20 03:57:28 PM train 050 1.824750e-01 94.799326 99.356618
09/20 03:57:40 PM train 100 1.809100e-01 94.821318 99.408261
09/20 03:57:51 PM train 150 1.829107e-01 94.805464 99.389487
09/20 03:58:03 PM train 200 1.817822e-01 94.873290 99.399487
09/20 03:58:15 PM train 250 1.806900e-01 94.876743 99.389940
09/20 03:58:27 PM train 300 1.786068e-01 94.910195 99.408223
09/20 03:58:38 PM train 350 1.777691e-01 94.950810 99.413506
09/20 03:58:50 PM train 400 1.789371e-01 94.925772 99.402860
09/20 03:59:02 PM train 450 1.802204e-01 94.921009 99.398905
09/20 03:59:14 PM train 500 1.791485e-01 94.971775 99.400418
09/20 03:59:25 PM train 550 1.782124e-01 95.018291 99.396694
09/20 03:59:37 PM train 600 1.778672e-01 94.994670 99.398139
09/20 03:59:45 PM train_acc 94.997387
09/20 03:59:45 PM valid 000 1.490961e-01 95.703125 100.000000
09/20 03:59:48 PM valid 050 1.671666e-01 95.473346 99.456189
09/20 03:59:51 PM valid 100 1.747669e-01 95.235149 99.396658
09/20 03:59:54 PM valid 150 1.711837e-01 95.296978 99.405008
09/20 03:59:57 PM valid 200 1.657499e-01 95.380519 99.448072
09/20 04:00:00 PM valid 250 1.637990e-01 95.432333 99.477092
09/20 04:00:01 PM valid_acc 95.408119
09/20 04:00:01 PM epoch 3 lr 4.459690e-03
09/20 04:00:01 PM train 000 1.930488e-01 95.312500 98.828125
09/20 04:00:13 PM train 050 1.648893e-01 95.481005 99.578738
09/20 04:00:25 PM train 100 1.619535e-01 95.529084 99.547494
09/20 04:00:36 PM train 150 1.622386e-01 95.490998 99.529180
09/20 04:00:48 PM train 200 1.618848e-01 95.454369 99.523865
09/20 04:01:00 PM train 250 1.603131e-01 95.480578 99.530005
09/20 04:01:12 PM train 300 1.630988e-01 95.426703 99.512043
09/20 04:01:23 PM train 350 1.619791e-01 95.462740 99.521457
09/20 04:01:35 PM train 400 1.592014e-01 95.540446 99.531445
09/20 04:01:47 PM train 450 1.585283e-01 95.548954 99.527093
09/20 04:01:59 PM train 500 1.584703e-01 95.555763 99.524389
09/20 04:02:10 PM train 550 1.583394e-01 95.552830 99.519340
09/20 04:02:22 PM train 600 1.592211e-01 95.515937 99.517081
09/20 04:02:30 PM train_acc 95.514432
09/20 04:02:30 PM valid 000 1.155302e-01 96.484375 100.000000
09/20 04:02:33 PM valid 050 1.488282e-01 95.863971 99.525123
09/20 04:02:36 PM valid 100 1.562986e-01 95.699257 99.489480
09/20 04:02:39 PM valid 150 1.549423e-01 95.705712 99.513659
09/20 04:02:42 PM valid 200 1.568141e-01 95.648710 99.518035
09/20 04:02:45 PM valid 250 1.577781e-01 95.634649 99.520667
09/20 04:02:46 PM valid_acc 95.660594
09/20 04:02:46 PM epoch 4 lr 4.151367e-03
09/20 04:02:46 PM train 000 1.218927e-01 96.484375 99.609375
09/20 04:02:58 PM train 050 1.376662e-01 95.909926 99.609375
09/20 04:03:10 PM train 100 1.370535e-01 95.942915 99.613243
09/20 04:03:22 PM train 150 1.388711e-01 95.930774 99.599027
09/20 04:03:33 PM train 200 1.392621e-01 95.951881 99.582167
09/20 04:03:45 PM train 250 1.428559e-01 95.886765 99.570468
09/20 04:03:57 PM train 300 1.415292e-01 95.917255 99.579527
09/20 04:04:08 PM train 350 1.455853e-01 95.824430 99.571537
09/20 04:04:20 PM train 400 1.453131e-01 95.825865 99.572358
09/20 04:04:32 PM train 450 1.455297e-01 95.820919 99.566935
09/20 04:04:44 PM train 500 1.452965e-01 95.837232 99.562594
09/20 04:04:55 PM train 550 1.452608e-01 95.835696 99.566130
09/20 04:05:07 PM train 600 1.460270e-01 95.832467 99.558028
09/20 04:05:15 PM train_acc 95.831053
09/20 04:05:15 PM valid 000 1.581215e-01 96.484375 99.609375
09/20 04:05:19 PM valid 050 1.479343e-01 95.986520 99.563419
09/20 04:05:22 PM valid 100 1.473541e-01 95.908106 99.574567
09/20 04:05:25 PM valid 150 1.460694e-01 95.972165 99.575745
09/20 04:05:28 PM valid 200 1.449998e-01 96.008240 99.560790
09/20 04:05:31 PM valid 250 1.445689e-01 95.997261 99.550237
09/20 04:05:32 PM valid_acc 96.003443
09/20 04:05:32 PM epoch 5 lr 3.805706e-03
09/20 04:05:32 PM train 000 1.063953e-01 95.703125 100.000000
09/20 04:05:44 PM train 050 1.388331e-01 95.902267 99.647672
09/20 04:05:56 PM train 100 1.277927e-01 96.271658 99.686726
09/20 04:06:08 PM train 150 1.308056e-01 96.207575 99.668874
09/20 04:06:20 PM train 200 1.346780e-01 96.111241 99.656017
09/20 04:06:31 PM train 250 1.349955e-01 96.075075 99.651394
09/20 04:06:43 PM train 300 1.364929e-01 96.049626 99.623650
09/20 04:06:55 PM train 350 1.382018e-01 96.021412 99.614939
09/20 04:07:07 PM train 400 1.395953e-01 96.007053 99.600608
09/20 04:07:18 PM train 450 1.394696e-01 96.028790 99.596383
09/20 04:07:30 PM train 500 1.395154e-01 96.032154 99.603137
09/20 04:07:42 PM train 550 1.387676e-01 96.046960 99.601577
09/20 04:07:54 PM train 600 1.388391e-01 96.050853 99.599626
09/20 04:08:02 PM train_acc 96.065906
09/20 04:08:02 PM valid 000 1.006708e-01 96.875000 99.609375
09/20 04:08:05 PM valid 050 1.382322e-01 96.078431 99.532782
09/20 04:08:08 PM valid 100 1.366854e-01 96.144028 99.551361
09/20 04:08:11 PM valid 150 1.410261e-01 96.142901 99.529180
09/20 04:08:14 PM valid 200 1.409885e-01 96.130675 99.531639
09/20 04:08:17 PM valid 250 1.405982e-01 96.179345 99.548680
09/20 04:08:19 PM valid_acc 96.202840
09/20 04:08:19 PM epoch 6 lr 3.431182e-03
09/20 04:08:19 PM train 000 1.162599e-01 95.312500 100.000000
09/20 04:08:31 PM train 050 1.241202e-01 96.453738 99.701287
09/20 04:08:42 PM train 100 1.235750e-01 96.488243 99.709932
09/20 04:08:54 PM train 150 1.261910e-01 96.445571 99.681809
09/20 04:09:06 PM train 200 1.283298e-01 96.356110 99.677394
09/20 04:09:18 PM train 250 1.290638e-01 96.358317 99.676295
09/20 04:09:29 PM train 300 1.311446e-01 96.303987 99.657392
09/20 04:09:41 PM train 350 1.308966e-01 96.295183 99.644988
09/20 04:09:53 PM train 400 1.313557e-01 96.259352 99.644444
09/20 04:10:05 PM train 450 1.316056e-01 96.284299 99.644886
09/20 04:10:16 PM train 500 1.316712e-01 96.291012 99.639003
09/20 04:10:28 PM train 550 1.315718e-01 96.284454 99.638441
09/20 04:10:40 PM train 600 1.308965e-01 96.291337 99.645773
09/20 04:10:48 PM train_acc 96.302604
09/20 04:10:48 PM valid 000 1.032232e-01 96.484375 99.609375
09/20 04:10:51 PM valid 050 1.167509e-01 97.035846 99.609375
09/20 04:10:54 PM valid 100 1.318862e-01 96.670019 99.555229
09/20 04:10:57 PM valid 150 1.311210e-01 96.629243 99.573158
09/20 04:11:00 PM valid 200 1.273395e-01 96.667055 99.589941
09/20 04:11:02 PM valid 250 1.281128e-01 96.616658 99.600037
09/20 04:11:04 PM valid_acc 96.610242
09/20 04:11:04 PM epoch 7 lr 3.036976e-03
09/20 04:11:04 PM train 000 1.080211e-01 96.093750 99.609375
09/20 04:11:16 PM train 050 1.286481e-01 96.223958 99.655331
09/20 04:11:28 PM train 100 1.234684e-01 96.376083 99.675124
09/20 04:11:39 PM train 150 1.226724e-01 96.453332 99.679222
09/20 04:11:51 PM train 200 1.262332e-01 96.371657 99.673507
09/20 04:12:03 PM train 250 1.239993e-01 96.405005 99.682520
09/20 04:12:14 PM train 300 1.261455e-01 96.364981 99.657392
09/20 04:12:26 PM train 350 1.258836e-01 96.351941 99.662794
09/20 04:12:38 PM train 400 1.255884e-01 96.362609 99.668797
09/20 04:12:50 PM train 450 1.272710e-01 96.347526 99.660477
09/20 04:13:01 PM train 500 1.272450e-01 96.346370 99.657716
09/20 04:13:13 PM train 550 1.266515e-01 96.365273 99.661127
09/20 04:13:25 PM train 600 1.267972e-01 96.362833 99.662672
09/20 04:13:33 PM train_acc 96.376379
09/20 04:13:33 PM valid 000 7.797892e-02 97.265625 100.000000
09/20 04:13:36 PM valid 050 1.095865e-01 96.997549 99.632353
09/20 04:13:39 PM valid 100 1.137761e-01 96.909808 99.613243
09/20 04:13:42 PM valid 150 1.180566e-01 96.838783 99.606788
09/20 04:13:45 PM valid 200 1.194305e-01 96.830302 99.601601
09/20 04:13:48 PM valid 250 1.194215e-01 96.825199 99.615600
09/20 04:13:49 PM valid_acc 96.805336
09/20 04:13:49 PM epoch 8 lr 2.632747e-03
09/20 04:13:49 PM train 000 2.008195e-01 94.921875 98.828125
09/20 04:14:01 PM train 050 1.153568e-01 96.813725 99.724265
09/20 04:14:13 PM train 100 1.079617e-01 96.902073 99.756343
09/20 04:14:24 PM train 150 1.117662e-01 96.789632 99.705091
09/20 04:14:36 PM train 200 1.146354e-01 96.731188 99.712376
09/20 04:14:48 PM train 250 1.138515e-01 96.741160 99.718314
09/20 04:15:00 PM train 300 1.148729e-01 96.712780 99.693729
09/20 04:15:11 PM train 350 1.154628e-01 96.713631 99.688390
09/20 04:15:23 PM train 400 1.163280e-01 96.673356 99.690228
09/20 04:15:35 PM train 450 1.165512e-01 96.649806 99.689925
09/20 04:15:47 PM train 500 1.178926e-01 96.628618 99.677988
09/20 04:15:58 PM train 550 1.179458e-01 96.647431 99.678851
09/20 04:16:10 PM train 600 1.183107e-01 96.639065 99.676971
09/20 04:16:18 PM train_acc 96.624143
09/20 04:16:18 PM valid 000 7.644878e-02 97.656250 99.609375
09/20 04:16:21 PM valid 050 1.065376e-01 97.097120 99.609375
09/20 04:16:24 PM valid 100 1.150102e-01 96.967822 99.605507
09/20 04:16:27 PM valid 150 1.157114e-01 96.924151 99.617136
09/20 04:16:30 PM valid 200 1.160043e-01 96.948850 99.605488
09/20 04:16:34 PM valid 250 1.165380e-01 96.963708 99.612488
09/20 04:16:35 PM valid_acc 96.981782
09/20 04:16:35 PM epoch 9 lr 2.228391e-03
09/20 04:16:35 PM train 000 8.867213e-02 97.656250 99.609375
09/20 04:16:47 PM train 050 1.152157e-01 96.606924 99.724265
09/20 04:16:59 PM train 100 1.132480e-01 96.685489 99.713800
09/20 04:17:10 PM train 150 1.125108e-01 96.737893 99.710265
09/20 04:17:22 PM train 200 1.141930e-01 96.711754 99.700715
09/20 04:17:34 PM train 250 1.130194e-01 96.748942 99.704308
09/20 04:17:46 PM train 300 1.125737e-01 96.778966 99.710600
09/20 04:17:57 PM train 350 1.129858e-01 96.774840 99.719551
09/20 04:18:09 PM train 400 1.122909e-01 96.802915 99.727244
09/20 04:18:21 PM train 450 1.130168e-01 96.778859 99.728901
09/20 04:18:33 PM train 500 1.130584e-01 96.776759 99.727108
09/20 04:18:44 PM train 550 1.137026e-01 96.762279 99.717843
09/20 04:18:56 PM train 600 1.132453e-01 96.788556 99.716618
09/20 04:19:04 PM train_acc 96.783376
09/20 04:19:04 PM valid 000 1.207559e-01 98.046875 99.609375
09/20 04:19:07 PM valid 050 1.007362e-01 97.074142 99.701287
09/20 04:19:10 PM valid 100 1.058707e-01 97.114790 99.671256
09/20 04:19:12 PM valid 150 1.064064e-01 97.138866 99.674048
09/20 04:19:15 PM valid 200 1.098953e-01 97.115983 99.667677
09/20 04:19:18 PM valid 250 1.111918e-01 97.085097 99.663845
09/20 04:19:19 PM valid_acc 97.069287
09/20 04:19:19 PM epoch 10 lr 1.833792e-03
09/20 04:19:19 PM train 000 1.006290e-01 96.484375 100.000000
09/20 04:19:31 PM train 050 1.054164e-01 97.127757 99.754902
09/20 04:19:43 PM train 100 1.062751e-01 97.006498 99.752475
09/20 04:19:54 PM train 150 1.070795e-01 96.918978 99.764590
09/20 04:20:06 PM train 200 1.076729e-01 96.890547 99.747357
09/20 04:20:18 PM train 250 1.056668e-01 96.941920 99.761890
09/20 04:20:30 PM train 300 1.043214e-01 96.982714 99.757319
09/20 04:20:41 PM train 350 1.055695e-01 96.957354 99.759615
09/20 04:20:53 PM train 400 1.058511e-01 96.929551 99.758416
09/20 04:21:05 PM train 450 1.072231e-01 96.913976 99.750554
09/20 04:21:17 PM train 500 1.075916e-01 96.900730 99.754397
09/20 04:21:28 PM train 550 1.075593e-01 96.887761 99.752581
09/20 04:21:40 PM train 600 1.086456e-01 96.859401 99.745216
09/20 04:21:48 PM train_acc 96.846700
09/20 04:21:48 PM valid 000 1.242225e-01 96.875000 100.000000
09/20 04:21:51 PM valid 050 1.179745e-01 96.997549 99.640012
09/20 04:21:54 PM valid 100 1.091894e-01 97.141863 99.702197
09/20 04:21:57 PM valid 150 1.056604e-01 97.257864 99.694743
09/20 04:22:00 PM valid 200 1.068113e-01 97.277285 99.671564
09/20 04:22:03 PM valid 250 1.048795e-01 97.321651 99.676295
09/20 04:22:04 PM valid_acc 97.328934
09/20 04:22:04 PM epoch 11 lr 1.458573e-03
09/20 04:22:04 PM train 000 8.513282e-02 96.093750 99.609375
09/20 04:22:16 PM train 050 1.026125e-01 97.051164 99.731924
09/20 04:22:28 PM train 100 1.036601e-01 97.072246 99.744740
09/20 04:22:40 PM train 150 1.012919e-01 97.112997 99.741308
09/20 04:22:51 PM train 200 1.025950e-01 97.112096 99.727923
09/20 04:23:03 PM train 250 1.034233e-01 97.130229 99.724539
09/20 04:23:15 PM train 300 1.021068e-01 97.128063 99.737853
09/20 04:23:27 PM train 350 1.032137e-01 97.094240 99.737358
09/20 04:23:38 PM train 400 1.026128e-01 97.085411 99.744779
09/20 04:23:50 PM train 450 1.030454e-01 97.069013 99.743625
09/20 04:24:02 PM train 500 1.040541e-01 97.036396 99.745041
09/20 04:24:14 PM train 550 1.045378e-01 97.026713 99.741238
09/20 04:24:25 PM train 600 1.037978e-01 97.055688 99.740667
09/20 04:24:33 PM train_acc 97.032984
09/20 04:24:34 PM valid 000 3.465687e-02 98.828125 100.000000
09/20 04:24:36 PM valid 050 1.065674e-01 97.319240 99.632353
09/20 04:24:39 PM valid 100 1.029432e-01 97.377785 99.648051
09/20 04:24:42 PM valid 150 9.826639e-02 97.467405 99.699917
09/20 04:24:45 PM valid 200 1.026858e-01 97.399720 99.687111
09/20 04:24:48 PM valid 250 1.017320e-01 97.402577 99.696526
09/20 04:24:49 PM valid_acc 97.420743
09/20 04:24:49 PM epoch 12 lr 1.111848e-03
09/20 04:24:49 PM train 000 1.680221e-01 94.921875 100.000000
09/20 04:25:01 PM train 050 9.612329e-02 97.135417 99.808517
09/20 04:25:13 PM train 100 9.509562e-02 97.242420 99.791151
09/20 04:25:25 PM train 150 9.654377e-02 97.156974 99.793046
09/20 04:25:36 PM train 200 9.921022e-02 97.061567 99.782338
09/20 04:25:48 PM train 250 9.880774e-02 97.086653 99.775896
09/20 04:26:00 PM train 300 9.873770e-02 97.130658 99.772892
09/20 04:26:12 PM train 350 9.913747e-02 97.136530 99.766293
09/20 04:26:23 PM train 400 9.881515e-02 97.153600 99.768158
09/20 04:26:35 PM train 450 9.964533e-02 97.131375 99.772208
09/20 04:26:47 PM train 500 1.005984e-01 97.109687 99.762974
09/20 04:26:59 PM train 550 1.000402e-01 97.131636 99.764632
09/20 04:27:10 PM train 600 9.988748e-02 97.142133 99.769915
09/20 04:27:18 PM train_acc 97.127048
09/20 04:27:19 PM valid 000 1.606843e-01 97.265625 98.828125
09/20 04:27:21 PM valid 050 1.080548e-01 97.487745 99.624694
09/20 04:27:24 PM valid 100 1.032183e-01 97.493812 99.678991
09/20 04:27:27 PM valid 150 1.026003e-01 97.449296 99.686983
09/20 04:27:30 PM valid 200 1.017371e-01 97.444419 99.700715
09/20 04:27:33 PM valid 250 1.012336e-01 97.453934 99.701195
09/20 04:27:34 PM valid_acc 97.459475
09/20 04:27:34 PM epoch 13 lr 8.019721e-04
09/20 04:27:34 PM train 000 9.836564e-02 96.484375 99.609375
09/20 04:27:46 PM train 050 1.047938e-01 96.806066 99.724265
09/20 04:27:58 PM train 100 1.020163e-01 97.052908 99.721535
09/20 04:28:10 PM train 150 9.897382e-02 97.177670 99.743895
09/20 04:28:21 PM train 200 9.727624e-02 97.211210 99.741527
09/20 04:28:33 PM train 250 9.764301e-02 97.206487 99.747883
09/20 04:28:45 PM train 300 9.521083e-02 97.252647 99.763808
09/20 04:28:57 PM train 350 9.547167e-02 97.252270 99.762954
09/20 04:29:08 PM train 400 9.618344e-02 97.244194 99.750623
09/20 04:29:20 PM train 450 9.620733e-02 97.249169 99.753153
09/20 04:29:32 PM train 500 9.692350e-02 97.243014 99.748940
09/20 04:29:44 PM train 550 9.691765e-02 97.243648 99.746200
09/20 04:29:55 PM train 600 9.690827e-02 97.233127 99.750416
09/20 04:30:04 PM train_acc 97.225416
09/20 04:30:04 PM valid 000 6.235716e-02 98.828125 99.609375
09/20 04:30:07 PM valid 050 1.014074e-01 97.663909 99.747243
09/20 04:30:09 PM valid 100 9.986425e-02 97.663985 99.744740
09/20 04:30:12 PM valid 150 9.713072e-02 97.645902 99.736134
09/20 04:30:15 PM valid 200 9.703392e-02 97.656250 99.727923
09/20 04:30:18 PM valid 250 9.638288e-02 97.673369 99.726096
09/20 04:30:19 PM valid_acc 97.643093
09/20 04:30:19 PM epoch 14 lr 5.362996e-04
09/20 04:30:20 PM train 000 1.237707e-01 96.875000 99.609375
09/20 04:30:31 PM train 050 9.314386e-02 97.434130 99.770221
09/20 04:30:43 PM train 100 9.705556e-02 97.292698 99.744740
09/20 04:30:55 PM train 150 9.506369e-02 97.327711 99.754243
09/20 04:31:07 PM train 200 9.263507e-02 97.370569 99.768734
09/20 04:31:18 PM train 250 9.431628e-02 97.369895 99.761890
09/20 04:31:30 PM train 300 9.321233e-02 97.397996 99.765106
09/20 04:31:42 PM train 350 9.276375e-02 97.388043 99.768519
09/20 04:31:54 PM train 400 9.240432e-02 97.383494 99.772054
09/20 04:32:05 PM train 450 9.370326e-02 97.352238 99.771341
09/20 04:32:17 PM train 500 9.361497e-02 97.366985 99.769212
09/20 04:32:29 PM train 550 9.361467e-02 97.356369 99.765341
09/20 04:32:41 PM train 600 9.390886e-02 97.351420 99.766015
09/20 04:32:49 PM train_acc 97.341613
09/20 04:32:49 PM valid 000 1.768765e-01 97.265625 99.218750
09/20 04:32:51 PM valid 050 1.065767e-01 97.503064 99.609375
09/20 04:32:54 PM valid 100 1.005505e-01 97.667853 99.651918
09/20 04:32:57 PM valid 150 9.763382e-02 97.638142 99.702504
09/20 04:32:59 PM valid 200 9.871871e-02 97.599891 99.700715
09/20 04:33:02 PM valid 250 9.680434e-02 97.615787 99.716758
09/20 04:33:03 PM valid_acc 97.638789
09/20 04:33:03 PM epoch 15 lr 3.209168e-04
09/20 04:33:04 PM train 000 8.010246e-02 98.046875 100.000000
09/20 04:33:15 PM train 050 9.565081e-02 97.219669 99.754902
09/20 04:33:27 PM train 100 9.542926e-02 97.377785 99.740873
09/20 04:33:39 PM train 150 9.386744e-02 97.415666 99.746482
09/20 04:33:51 PM train 200 9.380386e-02 97.382229 99.755131
09/20 04:34:02 PM train 250 9.319048e-02 97.401021 99.760334
09/20 04:34:14 PM train 300 9.270417e-02 97.412272 99.771595
09/20 04:34:26 PM train 350 9.309967e-02 97.392495 99.767406
09/20 04:34:38 PM train 400 9.341978e-02 97.369857 99.766209
09/20 04:34:49 PM train 450 9.418124e-02 97.341845 99.757483
09/20 04:35:01 PM train 500 9.494629e-02 97.331899 99.752058
09/20 04:35:13 PM train 550 9.501399e-02 97.328721 99.751872
09/20 04:35:25 PM train 600 9.436125e-02 97.333221 99.757566
09/20 04:35:33 PM train_acc 97.320709
09/20 04:35:33 PM valid 000 1.263794e-01 98.046875 99.609375
09/20 04:35:36 PM valid 050 9.477242e-02 97.656250 99.724265
09/20 04:35:38 PM valid 100 9.526116e-02 97.745204 99.706064
09/20 04:35:41 PM valid 150 9.375810e-02 97.759727 99.707678
09/20 04:35:44 PM valid 200 9.246613e-02 97.759251 99.722093
09/20 04:35:46 PM valid 250 9.286009e-02 97.724726 99.730764
09/20 04:35:47 PM valid_acc 97.716253
09/20 04:35:47 PM epoch 16 lr 1.602945e-04
09/20 04:35:48 PM train 000 8.458800e-02 97.656250 99.218750
09/20 04:35:59 PM train 050 1.025303e-01 97.234988 99.662990
09/20 04:36:11 PM train 100 9.734601e-02 97.277228 99.740873
09/20 04:36:23 PM train 150 9.573733e-02 97.335472 99.767177
09/20 04:36:35 PM train 200 9.443630e-02 97.388060 99.768734
09/20 04:36:46 PM train 250 9.518069e-02 97.340326 99.769671
09/20 04:36:58 PM train 300 9.499788e-02 97.353873 99.767701
09/20 04:37:10 PM train 350 9.490834e-02 97.372463 99.768519
09/20 04:37:22 PM train 400 9.521447e-02 97.379598 99.765235
09/20 04:37:33 PM train 450 9.443063e-02 97.384285 99.765279
09/20 04:37:45 PM train 500 9.456599e-02 97.381799 99.768432
09/20 04:37:57 PM train 550 9.434782e-02 97.381182 99.768886
09/20 04:38:09 PM train 600 9.462305e-02 97.374168 99.769915
09/20 04:38:17 PM train_acc 97.360671
09/20 04:38:17 PM valid 000 7.932772e-02 96.875000 100.000000
09/20 04:38:20 PM valid 050 8.912104e-02 97.947304 99.793199
09/20 04:38:23 PM valid 100 9.701309e-02 97.830291 99.717667
09/20 04:38:25 PM valid 150 9.399488e-02 97.834748 99.738721
09/20 04:38:28 PM valid 200 9.589886e-02 97.815609 99.724036
09/20 04:38:31 PM valid 250 9.521930e-02 97.771414 99.735433
09/20 04:38:32 PM valid_acc 97.756419
09/20 04:38:32 PM epoch 17 lr 5.663718e-05
09/20 04:38:33 PM train 000 1.034326e-01 96.484375 99.609375
09/20 04:38:45 PM train 050 9.984954e-02 97.028186 99.747243
09/20 04:38:56 PM train 100 9.953014e-02 97.087717 99.733137
09/20 04:39:08 PM train 150 1.000529e-01 97.092301 99.733547
09/20 04:39:20 PM train 200 9.994686e-02 97.178172 99.718206
09/20 04:39:32 PM train 250 1.005009e-01 97.173805 99.718314
09/20 04:39:43 PM train 300 1.005039e-01 97.182569 99.723578
09/20 04:39:55 PM train 350 1.007012e-01 97.187723 99.728454
09/20 04:40:07 PM train 400 9.973477e-02 97.202307 99.740882
09/20 04:40:19 PM train 450 9.894912e-02 97.236177 99.737562
09/20 04:40:30 PM train 500 9.808055e-02 97.257048 99.742702
09/20 04:40:42 PM train 550 9.818274e-02 97.259245 99.739820
09/20 04:40:54 PM train 600 9.793914e-02 97.274724 99.738067
09/20 04:41:02 PM train_acc 97.254311
09/20 04:41:02 PM valid 000 1.970951e-01 95.312500 100.000000
09/20 04:41:05 PM valid 050 8.978526e-02 97.740502 99.785539
09/20 04:41:08 PM valid 100 9.266465e-02 97.756807 99.733137
09/20 04:41:11 PM valid 150 9.369122e-02 97.759727 99.718026
09/20 04:41:13 PM valid 200 9.329707e-02 97.772854 99.741527
09/20 04:41:16 PM valid 250 9.587253e-02 97.744958 99.735433
09/20 04:41:18 PM valid_acc 97.746378
09/20 04:41:18 PM epoch 18 lr 7.980878e-06
09/20 04:41:18 PM train 000 8.527030e-02 96.875000 99.609375
09/20 04:41:30 PM train 050 1.006834e-01 97.097120 99.716605
09/20 04:41:41 PM train 100 1.022979e-01 97.134127 99.713800
09/20 04:41:53 PM train 150 1.032949e-01 97.118171 99.728373
09/20 04:42:05 PM train 200 1.031641e-01 97.077114 99.720149
09/20 04:42:17 PM train 250 1.022131e-01 97.085097 99.724539
09/20 04:42:28 PM train 300 1.018528e-01 97.080046 99.728769
09/20 04:42:40 PM train 350 1.039741e-01 97.056401 99.721777
09/20 04:42:52 PM train 400 1.033557e-01 97.079567 99.715555
09/20 04:43:04 PM train 450 1.027500e-01 97.088068 99.716775
09/20 04:43:15 PM train 500 1.032542e-01 97.084737 99.707616
09/20 04:43:27 PM train 550 1.031738e-01 97.101151 99.707917
09/20 04:43:39 PM train 600 1.029697e-01 97.097286 99.712068
09/20 04:43:47 PM train_acc 97.097538
09/20 04:43:47 PM valid 000 9.748880e-02 98.046875 99.218750
09/20 04:43:50 PM valid 050 9.202287e-02 97.809436 99.739583
09/20 04:43:53 PM valid 100 9.034941e-02 97.899907 99.729270
09/20 04:43:56 PM valid 150 8.958514e-02 97.876138 99.738721
09/20 04:43:59 PM valid 200 9.503512e-02 97.757307 99.722093
09/20 04:44:02 PM valid 250 9.476820e-02 97.734064 99.741658
09/20 04:44:03 PM valid_acc 97.757854
09/20 04:44:03 PM epoch 19 lr 0.000000e+00
09/20 04:44:03 PM train 000 1.647652e-01 94.140625 100.000000
09/20 04:44:15 PM train 050 1.099206e-01 96.905637 99.708946
09/20 04:44:27 PM train 100 1.135762e-01 96.789913 99.651918
09/20 04:44:38 PM train 150 1.138065e-01 96.784458 99.681809
09/20 04:44:50 PM train 200 1.154267e-01 96.742848 99.667677
09/20 04:45:02 PM train 250 1.140301e-01 96.769173 99.668513
09/20 04:45:14 PM train 300 1.141030e-01 96.776370 99.663881
09/20 04:45:25 PM train 350 1.146923e-01 96.753695 99.667245
09/20 04:45:37 PM train 400 1.138044e-01 96.780510 99.665874
09/20 04:45:49 PM train 450 1.136524e-01 96.790985 99.666540
09/20 04:46:01 PM train 500 1.136300e-01 96.793132 99.663953
09/20 04:46:12 PM train 550 1.133834e-01 96.786383 99.668217
09/20 04:46:24 PM train 600 1.128036e-01 96.818454 99.669171
09/20 04:46:32 PM train_acc 96.807353
09/20 04:46:32 PM valid 000 1.027464e-01 98.046875 99.218750
09/20 04:46:35 PM valid 050 1.028625e-01 97.518382 99.655331
09/20 04:46:38 PM valid 100 1.008974e-01 97.652382 99.702197
09/20 04:46:41 PM valid 150 9.740734e-02 97.739031 99.715439
09/20 04:46:44 PM valid 200 9.822218e-02 97.699005 99.718206
09/20 04:46:47 PM valid 250 9.830667e-02 97.688932 99.718314
09/20 04:46:48 PM valid_acc 97.726295
09/20 04:46:48 PM test 000 8.033694e-02 98.046875 99.609375
09/20 04:46:51 PM test 050 2.082096e-01 95.481005 99.103860
09/20 04:46:54 PM test 100 2.106684e-01 95.389851 99.125928
09/20 04:46:57 PM test 150 2.185725e-01 95.301839 99.092018
09/20 04:46:57 PM test_acc 95.301839
train_acc_list:  [86.83840029604124, 94.05797547002118, 94.99738710838548, 95.51443238803783, 95.83105345928263, 96.06590636693886, 96.30260367057974, 96.3763794560242, 96.62414312783353, 96.78337585945478, 96.84670007117084, 97.0329839232618, 97.12704804718233, 97.2254157575122, 97.34161261589344, 97.32070947781772, 97.36067136009525, 97.25431127467013, 97.09753773370812, 96.80735298661675]
valid_acc_list:  [91.6439535237029, 93.45717974618866, 95.40811935225615, 95.66059388918747, 96.00344283569494, 96.20284033920207, 96.6102424340309, 96.80533639406853, 96.98178166712464, 97.06928704742927, 97.32893415622604, 97.4207430793435, 97.45947496794231, 97.64309281417722, 97.63878927092661, 97.71625304856202, 97.75641945267216, 97.74637785175408, 97.75785396665125, 97.72629464926122]
test_acc:  95.30183930592113
